^C:\USERS\STUART\DOCUMENTS\UNIVERSITY_WORK\PROJECT\OPENPOSE\BUILD\EXAMPLES\TUTORIAL_API_CPP\17_SYNCHRONOUS_CUSTOM_OUTPUT.DIR\DEBUG\17_SYNCHRONOUS_CUSTOM_OUTPUT.OBJ
C:\USERS\STUART\DOCUMENTS\UNIVERSITY_WORK\PROJECT\OPENPOSE\BUILD\X64\DEBUG\17_SYNCHRONOUS_CUSTOM_OUTPUT.ILK
C:\USERS\STUART\DOCUMENTS\UNIVERSITY_WORK\PROJECT\OPENPOSE\BUILD\X64\DEBUG\17_SYNCHRONOUS_CUSTOM_OUTPUT.EXE
C:\USERS\STUART\DOCUMENTS\UNIVERSITY_WORK\PROJECT\OPENPOSE\BUILD\X64\DEBUG\17_SYNCHRONOUS_CUSTOM_OUTPUT.PDB
