^C:\USERS\STUART\DOCUMENTS\UNIVERSITY_WORK\PROJECT\OPENPOSE\EXAMPLES\TUTORIAL_API_CPP\16_SYNCHRONOUS_CUSTOM_POSTPROCESSING.CPP
C:\USERS\STUART\DOCUMENTS\UNIVERSITY_WORK\PROJECT\OPENPOSE\BUILD\EXAMPLES\TUTORIAL_API_CPP\16_SYNCHRONOUS_CUSTOM_POSTPROCESSING.DIR\DEBUG\VC141.PDB
C:\USERS\STUART\DOCUMENTS\UNIVERSITY_WORK\PROJECT\OPENPOSE\BUILD\EXAMPLES\TUTORIAL_API_CPP\16_SYNCHRONOUS_CUSTOM_POSTPROCESSING.DIR\DEBUG\16_SYNCHRONOUS_CUSTOM_POSTPROCESSING.OBJ
