^C:\USERS\STUART\DOCUMENTS\UNIVERSITY_WORK\PROJECT\OPENPOSE\SRC\OPENPOSE\FACE\RENDERFACE.CU
C:\USERS\STUART\DOCUMENTS\UNIVERSITY_WORK\PROJECT\OPENPOSE\BUILD\SRC\OPENPOSE\CMAKEFILES\OPENPOSE.DIR\FACE\DEBUG\OPENPOSE_GENERATED_RENDERFACE.CU.OBJ
^C:\USERS\STUART\DOCUMENTS\UNIVERSITY_WORK\PROJECT\OPENPOSE\SRC\OPENPOSE\GPU\CUDA.CU
C:\USERS\STUART\DOCUMENTS\UNIVERSITY_WORK\PROJECT\OPENPOSE\BUILD\SRC\OPENPOSE\CMAKEFILES\OPENPOSE.DIR\GPU\DEBUG\OPENPOSE_GENERATED_CUDA.CU.OBJ
^C:\USERS\STUART\DOCUMENTS\UNIVERSITY_WORK\PROJECT\OPENPOSE\SRC\OPENPOSE\HAND\RENDERHAND.CU
C:\USERS\STUART\DOCUMENTS\UNIVERSITY_WORK\PROJECT\OPENPOSE\BUILD\SRC\OPENPOSE\CMAKEFILES\OPENPOSE.DIR\HAND\DEBUG\OPENPOSE_GENERATED_RENDERHAND.CU.OBJ
^C:\USERS\STUART\DOCUMENTS\UNIVERSITY_WORK\PROJECT\OPENPOSE\SRC\OPENPOSE\NET\BODYPARTCONNECTORBASE.CU
C:\USERS\STUART\DOCUMENTS\UNIVERSITY_WORK\PROJECT\OPENPOSE\BUILD\SRC\OPENPOSE\CMAKEFILES\OPENPOSE.DIR\NET\DEBUG\OPENPOSE_GENERATED_BODYPARTCONNECTORBASE.CU.OBJ
^C:\USERS\STUART\DOCUMENTS\UNIVERSITY_WORK\PROJECT\OPENPOSE\SRC\OPENPOSE\NET\MAXIMUMBASE.CU
C:\USERS\STUART\DOCUMENTS\UNIVERSITY_WORK\PROJECT\OPENPOSE\BUILD\SRC\OPENPOSE\CMAKEFILES\OPENPOSE.DIR\NET\DEBUG\OPENPOSE_GENERATED_MAXIMUMBASE.CU.OBJ
^C:\USERS\STUART\DOCUMENTS\UNIVERSITY_WORK\PROJECT\OPENPOSE\SRC\OPENPOSE\NET\NMSBASE.CU
C:\USERS\STUART\DOCUMENTS\UNIVERSITY_WORK\PROJECT\OPENPOSE\BUILD\SRC\OPENPOSE\CMAKEFILES\OPENPOSE.DIR\NET\DEBUG\OPENPOSE_GENERATED_NMSBASE.CU.OBJ
^C:\USERS\STUART\DOCUMENTS\UNIVERSITY_WORK\PROJECT\OPENPOSE\SRC\OPENPOSE\NET\RESIZEANDMERGEBASE.CU
C:\USERS\STUART\DOCUMENTS\UNIVERSITY_WORK\PROJECT\OPENPOSE\BUILD\SRC\OPENPOSE\CMAKEFILES\OPENPOSE.DIR\NET\DEBUG\OPENPOSE_GENERATED_RESIZEANDMERGEBASE.CU.OBJ
^C:\USERS\STUART\DOCUMENTS\UNIVERSITY_WORK\PROJECT\OPENPOSE\SRC\OPENPOSE\POSE\RENDERPOSE.CU
C:\USERS\STUART\DOCUMENTS\UNIVERSITY_WORK\PROJECT\OPENPOSE\BUILD\SRC\OPENPOSE\CMAKEFILES\OPENPOSE.DIR\POSE\DEBUG\OPENPOSE_GENERATED_RENDERPOSE.CU.OBJ
^C:\USERS\STUART\DOCUMENTS\UNIVERSITY_WORK\PROJECT\OPENPOSE\SRC\OPENPOSE\TRACKING\PYRAMIDALLK.CU
C:\USERS\STUART\DOCUMENTS\UNIVERSITY_WORK\PROJECT\OPENPOSE\BUILD\SRC\OPENPOSE\CMAKEFILES\OPENPOSE.DIR\TRACKING\DEBUG\OPENPOSE_GENERATED_PYRAMIDALLK.CU.OBJ
