^C:\Users\Stuart\Documents\University_Work\Project\openpose\build\examples\tutorial_api_cpp\17_synchronous_custom_output.vcxproj
C:\Users\Stuart\Documents\University_Work\Project\openpose\build\examples\tutorial_api_cpp\Release\17_synchronous_custom_output.lib
C:\Users\Stuart\Documents\University_Work\Project\openpose\build\examples\tutorial_api_cpp\Release\17_synchronous_custom_output.exp
