               epoch,      train/box_loss,      train/obj_loss,      train/cls_loss,   metrics/precision,      metrics/recall,     metrics/mAP_0.5,metrics/mAP_0.5:0.95,        val/box_loss,        val/obj_loss,        val/cls_loss,               x/lr0,               x/lr1,               x/lr2
                   0,            0.094139,            0.021699,                   0,             0.17505,             0.35894,              0.1409,            0.029742,            0.075698,            0.011925,                   0,           0.0032624,           0.0032624,            0.070638
                   1,            0.058117,            0.015613,                   0,              0.3945,             0.55168,             0.42286,             0.17578,            0.058205,             0.01013,                   0,           0.0064092,           0.0064092,            0.040452
                   2,            0.051485,            0.011181,                   0,             0.73947,             0.55028,             0.63035,             0.26585,             0.05248,           0.0082887,                   0,           0.0093674,           0.0093674,            0.010077
                   3,            0.046248,           0.0093205,                   0,             0.78306,             0.67554,             0.73249,             0.25437,            0.048214,             0.00833,                   0,           0.0091514,           0.0091514,           0.0091514
                   4,            0.041805,           0.0087698,                   0,             0.84466,             0.74421,             0.81058,             0.42881,            0.039476,           0.0077472,                   0,           0.0091514,           0.0091514,           0.0091514
                   5,            0.039168,           0.0081335,                   0,             0.90253,             0.71229,             0.82773,             0.44572,            0.038285,           0.0062165,                   0,           0.0088686,           0.0088686,           0.0088686
                   6,            0.037151,           0.0075749,                   0,             0.87076,             0.76257,             0.84171,             0.40889,            0.041378,           0.0061469,                   0,           0.0085857,           0.0085857,           0.0085857
                   7,            0.035157,           0.0074303,                   0,             0.85621,              0.7651,             0.83518,             0.41008,            0.039437,           0.0060489,                   0,           0.0083029,           0.0083029,           0.0083029
                   8,            0.032777,           0.0071037,                   0,             0.95418,             0.84344,             0.91352,             0.52176,            0.031701,           0.0053814,                   0,             0.00802,             0.00802,             0.00802
                   9,            0.031514,           0.0068759,                   0,             0.92685,             0.85056,             0.89889,             0.53516,            0.031748,           0.0053758,                   0,           0.0077371,           0.0077371,           0.0077371
                  10,            0.030481,           0.0066831,                   0,             0.94372,             0.84358,             0.91241,             0.55253,            0.030557,           0.0050871,                   0,           0.0074543,           0.0074543,           0.0074543
                  11,            0.029018,           0.0063852,                   0,              0.9174,             0.87011,             0.91586,             0.54595,            0.031729,           0.0050867,                   0,           0.0071714,           0.0071714,           0.0071714
                  12,            0.028046,           0.0061003,                   0,             0.93647,             0.88687,             0.92607,             0.56172,            0.030574,           0.0049002,                   0,           0.0068886,           0.0068886,           0.0068886
                  13,            0.027671,           0.0062318,                   0,             0.93012,              0.8743,             0.92224,             0.58588,            0.029494,           0.0048805,                   0,           0.0066057,           0.0066057,           0.0066057
                  14,            0.026846,            0.006039,                   0,             0.95451,             0.88268,             0.92594,             0.58621,            0.029233,           0.0048682,                   0,           0.0063229,           0.0063229,           0.0063229
                  15,            0.026508,           0.0059006,                   0,             0.92561,             0.90362,              0.9353,             0.59491,            0.028085,           0.0046262,                   0,             0.00604,             0.00604,             0.00604
                  16,            0.025162,           0.0058018,                   0,             0.95007,             0.90349,              0.9361,             0.60316,             0.02826,           0.0047571,                   0,           0.0057571,           0.0057571,           0.0057571
                  17,            0.025075,           0.0057125,                   0,             0.95789,             0.88964,             0.94422,             0.61523,            0.027479,           0.0046178,                   0,           0.0054743,           0.0054743,           0.0054743
                  18,            0.023757,           0.0055451,                   0,             0.93428,             0.91333,             0.94508,             0.60368,             0.02791,            0.004562,                   0,           0.0051914,           0.0051914,           0.0051914
                  19,            0.023846,           0.0056104,                   0,             0.94853,             0.90081,             0.93066,             0.60459,             0.02631,           0.0046708,                   0,           0.0049086,           0.0049086,           0.0049086
                  20,            0.022736,           0.0053969,                   0,             0.96006,             0.90636,             0.93985,             0.62709,            0.026239,           0.0046172,                   0,           0.0046257,           0.0046257,           0.0046257
                  21,            0.022453,           0.0054221,                   0,             0.96374,             0.89231,             0.93926,             0.61442,            0.026713,           0.0046778,                   0,           0.0043429,           0.0043429,           0.0043429
                  22,             0.02236,           0.0053816,                   0,             0.96908,             0.87709,             0.93951,             0.61914,            0.025583,           0.0046288,                   0,             0.00406,             0.00406,             0.00406
                  23,            0.021488,           0.0051806,                   0,             0.96375,             0.89246,             0.93398,             0.63329,            0.025602,           0.0047731,                   0,           0.0037771,           0.0037771,           0.0037771
                  24,            0.020837,           0.0050745,                   0,             0.96567,             0.90629,             0.94836,             0.64714,            0.025154,           0.0044865,                   0,           0.0034943,           0.0034943,           0.0034943
                  25,            0.020083,           0.0050535,                   0,             0.97413,             0.89776,             0.95264,              0.6471,            0.024754,           0.0043574,                   0,           0.0032114,           0.0032114,           0.0032114
                  26,            0.019719,           0.0048671,                   0,             0.96587,             0.91445,             0.95469,             0.65849,            0.024423,           0.0044265,                   0,           0.0029286,           0.0029286,           0.0029286
                  27,            0.019408,           0.0049425,                   0,             0.97305,              0.9169,             0.95654,             0.65262,            0.024295,           0.0044809,                   0,           0.0026457,           0.0026457,           0.0026457
                  28,            0.019192,           0.0047536,                   0,             0.97305,             0.91034,             0.95625,             0.65711,            0.023883,           0.0043403,                   0,           0.0023629,           0.0023629,           0.0023629
                  29,            0.018784,           0.0046777,                   0,             0.97291,             0.90756,             0.95415,             0.66026,             0.02402,           0.0043724,                   0,             0.00208,             0.00208,             0.00208
                  30,            0.018713,           0.0047843,                   0,             0.95754,             0.91714,             0.95426,             0.65852,            0.024021,           0.0044427,                   0,           0.0017971,           0.0017971,           0.0017971
                  31,            0.017953,            0.004564,                   0,              0.9616,             0.91573,              0.9564,              0.6677,            0.023663,           0.0044973,                   0,           0.0015143,           0.0015143,           0.0015143
                  32,            0.017756,           0.0045704,                   0,             0.96718,             0.91152,             0.95555,              0.6652,            0.023352,           0.0044084,                   0,           0.0012314,           0.0012314,           0.0012314
                  33,            0.017061,           0.0045195,                   0,             0.97422,             0.90871,             0.95524,             0.67112,            0.023311,           0.0044378,                   0,          0.00094857,          0.00094857,          0.00094857
                  34,            0.017015,           0.0045109,                   0,             0.96601,             0.91725,             0.95601,             0.67382,            0.023054,           0.0043694,                   0,          0.00066571,          0.00066571,          0.00066571
