               epoch,      train/box_loss,      train/obj_loss,      train/cls_loss,   metrics/precision,      metrics/recall,     metrics/mAP_0.5,metrics/mAP_0.5:0.95,        val/box_loss,        val/obj_loss,        val/cls_loss,               x/lr0,               x/lr1,               x/lr2
                   0,            0.073897,            0.023966,                   0,             0.51784,             0.46458,             0.46608,             0.10709,            0.037395,            0.011238,                   0,           0.0032922,           0.0032922,             0.07037
                   1,            0.046113,            0.015853,                   0,             0.77142,             0.69769,             0.78017,             0.36148,            0.027273,           0.0078966,                   0,           0.0064798,           0.0064798,            0.040225
                   2,            0.040937,            0.013768,                   0,             0.85205,             0.75029,             0.84176,             0.41819,             0.02669,           0.0068348,                   0,           0.0095207,           0.0095207,           0.0099322
                   3,            0.037583,            0.013117,                   0,              0.8403,             0.75261,             0.83268,             0.47821,            0.024583,           0.0060327,                   0,             0.00934,             0.00934,             0.00934
                   4,            0.035242,            0.012247,                   0,              0.9162,             0.86411,             0.91846,             0.53284,            0.021236,           0.0054711,                   0,             0.00934,             0.00934,             0.00934
                   5,            0.033147,            0.011871,                   0,              0.8988,             0.86496,             0.91562,             0.52378,            0.022427,           0.0052272,                   0,             0.00912,             0.00912,             0.00912
                   6,            0.031673,            0.011387,                   0,             0.92981,             0.86527,             0.93082,             0.53244,            0.020845,           0.0052224,                   0,              0.0089,              0.0089,              0.0089
                   7,            0.030764,            0.011355,                   0,             0.89833,             0.82114,             0.90137,             0.53808,            0.020917,           0.0057969,                   0,             0.00868,             0.00868,             0.00868
                   8,            0.029471,            0.010804,                   0,             0.90923,             0.80581,             0.87823,             0.51766,             0.02264,           0.0056042,                   0,             0.00846,             0.00846,             0.00846
                   9,            0.029528,            0.010534,                   0,             0.93277,             0.90243,             0.94308,             0.61221,            0.019083,           0.0047464,                   0,             0.00824,             0.00824,             0.00824
                  10,            0.028673,            0.010436,                   0,             0.96005,             0.89309,             0.94983,             0.61263,            0.019183,           0.0046814,                   0,             0.00802,             0.00802,             0.00802
                  11,            0.027452,            0.010162,                   0,             0.93529,             0.92451,             0.96121,             0.61865,            0.018315,           0.0045511,                   0,              0.0078,              0.0078,              0.0078
                  12,            0.028084,           0.0099914,                   0,             0.96178,             0.87682,              0.9499,             0.61508,            0.019433,           0.0048975,                   0,             0.00758,             0.00758,             0.00758
                  13,            0.026963,           0.0098694,                   0,              0.9383,             0.90349,             0.95148,             0.60591,            0.019335,           0.0048679,                   0,             0.00736,             0.00736,             0.00736
                  14,            0.026713,           0.0097169,                   0,             0.97029,              0.9104,             0.97004,             0.64785,             0.01792,           0.0045134,                   0,             0.00714,             0.00714,             0.00714
                  15,            0.026238,           0.0097505,                   0,             0.94622,             0.92102,             0.96432,             0.63474,            0.018011,           0.0046394,                   0,             0.00692,             0.00692,             0.00692
                  16,            0.025638,            0.009475,                   0,             0.96835,             0.89315,             0.95402,             0.61585,            0.019165,           0.0044827,                   0,              0.0067,              0.0067,              0.0067
                  17,            0.025488,           0.0095224,                   0,             0.98232,             0.90671,             0.96963,              0.6622,            0.017574,            0.004527,                   0,             0.00648,             0.00648,             0.00648
                  18,            0.024766,           0.0091368,                   0,             0.96457,             0.92093,             0.97149,             0.66094,            0.017513,           0.0045196,                   0,             0.00626,             0.00626,             0.00626
                  19,            0.024586,           0.0090414,                   0,             0.97171,             0.91845,             0.96596,             0.66793,            0.018009,           0.0044347,                   0,             0.00604,             0.00604,             0.00604
                  20,             0.02429,           0.0089483,                   0,             0.97371,             0.91173,             0.96995,             0.64987,            0.017734,           0.0044774,                   0,             0.00582,             0.00582,             0.00582
                  21,            0.024215,           0.0090006,                   0,             0.97055,             0.91851,             0.96635,             0.65609,            0.017718,           0.0043616,                   0,              0.0056,              0.0056,              0.0056
                  22,            0.023692,           0.0086315,                   0,             0.97296,             0.92782,             0.97353,             0.66762,            0.017333,           0.0045192,                   0,             0.00538,             0.00538,             0.00538
                  23,             0.02396,           0.0089233,                   0,              0.9814,             0.92442,             0.97729,             0.66804,            0.017714,           0.0044977,                   0,             0.00516,             0.00516,             0.00516
                  24,            0.023447,           0.0085636,                   0,             0.96968,             0.93473,             0.97655,             0.68444,            0.017118,           0.0043836,                   0,             0.00494,             0.00494,             0.00494
                  25,             0.02296,           0.0084341,                   0,             0.96865,              0.9338,             0.97561,              0.6755,            0.017519,           0.0044024,                   0,             0.00472,             0.00472,             0.00472
                  26,            0.022643,           0.0084718,                   0,             0.97689,             0.93844,             0.97877,             0.68079,            0.017081,           0.0044057,                   0,              0.0045,              0.0045,              0.0045
                  27,            0.022462,           0.0083149,                   0,             0.97342,             0.93612,             0.97557,             0.67892,            0.017102,           0.0043691,                   0,             0.00428,             0.00428,             0.00428
                  28,            0.022405,           0.0082878,                   0,             0.97239,             0.94067,             0.97374,             0.67858,            0.017258,           0.0043611,                   0,             0.00406,             0.00406,             0.00406
                  29,            0.022265,           0.0083443,                   0,             0.97158,             0.93333,             0.97613,             0.68626,            0.016921,           0.0045882,                   0,             0.00384,             0.00384,             0.00384
                  30,             0.02179,           0.0082142,                   0,             0.96431,             0.94302,              0.9693,             0.68023,            0.017371,           0.0044809,                   0,             0.00362,             0.00362,             0.00362
                  31,            0.021322,           0.0080314,                   0,             0.97476,             0.94298,             0.97774,             0.69039,            0.017152,           0.0044496,                   0,              0.0034,              0.0034,              0.0034
                  32,            0.021192,           0.0078342,                   0,             0.98542,             0.94965,             0.98197,             0.70668,            0.016563,            0.004508,                   0,             0.00318,             0.00318,             0.00318
                  33,            0.020862,            0.007868,                   0,             0.97375,             0.95566,             0.97936,             0.69985,             0.01665,           0.0043892,                   0,             0.00296,             0.00296,             0.00296
                  34,            0.020899,           0.0078524,                   0,             0.97251,             0.94994,             0.98145,              0.7058,            0.016349,           0.0042762,                   0,             0.00274,             0.00274,             0.00274
                  35,            0.020058,           0.0075723,                   0,             0.97163,             0.95587,             0.97706,             0.70095,            0.016405,           0.0043048,                   0,             0.00252,             0.00252,             0.00252
                  36,            0.019688,           0.0075756,                   0,             0.97966,             0.95114,             0.98062,              0.7025,            0.016601,           0.0043158,                   0,              0.0023,              0.0023,              0.0023
                  37,            0.019695,           0.0075104,                   0,              0.9819,             0.95233,             0.98102,             0.70721,            0.016765,           0.0042928,                   0,             0.00208,             0.00208,             0.00208
                  38,            0.019427,           0.0074007,                   0,             0.98787,             0.94657,             0.98213,             0.70191,            0.016284,           0.0042143,                   0,             0.00186,             0.00186,             0.00186
                  39,            0.019239,           0.0073774,                   0,             0.98755,             0.94399,             0.98199,             0.70808,            0.016213,           0.0044919,                   0,             0.00164,             0.00164,             0.00164
                  40,            0.019059,           0.0073436,                   0,             0.98323,             0.95572,             0.98377,              0.7164,             0.01631,           0.0043989,                   0,             0.00142,             0.00142,             0.00142
                  41,            0.018753,           0.0072277,                   0,              0.9717,             0.95923,             0.98104,              0.7161,            0.016233,             0.00437,                   0,              0.0012,              0.0012,              0.0012
                  42,            0.018616,           0.0071385,                   0,             0.98549,             0.95338,             0.98353,             0.72133,            0.016215,           0.0044678,                   0,             0.00098,             0.00098,             0.00098
                  43,            0.018149,           0.0072382,                   0,             0.98687,             0.96385,               0.984,             0.71591,            0.016367,           0.0043539,                   0,             0.00076,             0.00076,             0.00076
                  44,            0.018046,           0.0071263,                   0,             0.98804,             0.96043,             0.98166,             0.71913,            0.016148,           0.0043971,                   0,             0.00054,             0.00054,             0.00054
