^C:\USERS\STUART\DOCUMENTS\UNIVERSITY_WORK\PROJECT\OPENPOSE\BUILD\EXAMPLES\CALIBRATION\CALIBRATION.DIR\RELEASE\CALIBRATION.OBJ
C:\USERS\STUART\DOCUMENTS\UNIVERSITY_WORK\PROJECT\OPENPOSE\BUILD\SRC\OPENPOSE\RELEASE\OPENPOSE.LIB
C:\PROGRAM FILES\NVIDIA GPU COMPUTING TOOLKIT\CUDA\V11.6\LIB\X64\CUDART_STATIC.LIB
C:\USERS\STUART\DOCUMENTS\UNIVERSITY_WORK\PROJECT\OPENPOSE\3RDPARTY\WINDOWS\OPENCV\X64\VC15\LIB\OPENCV_WORLD450.LIB
C:\USERS\STUART\DOCUMENTS\UNIVERSITY_WORK\PROJECT\OPENPOSE\3RDPARTY\WINDOWS\CAFFE3RDPARTY\LIB\GFLAGS.LIB
C:\USERS\STUART\DOCUMENTS\UNIVERSITY_WORK\PROJECT\OPENPOSE\3RDPARTY\WINDOWS\CAFFE3RDPARTY\LIB\GLOG.LIB
C:\USERS\STUART\DOCUMENTS\UNIVERSITY_WORK\PROJECT\OPENPOSE\3RDPARTY\WINDOWS\CAFFE\LIB\CAFFEPROTO-D.LIB
C:\USERS\STUART\DOCUMENTS\UNIVERSITY_WORK\PROJECT\OPENPOSE\3RDPARTY\WINDOWS\CAFFE\LIB\CAFFE.LIB
C:\USERS\STUART\DOCUMENTS\UNIVERSITY_WORK\PROJECT\OPENPOSE\3RDPARTY\WINDOWS\CAFFE\LIB\CAFFEPROTO.LIB
C:\USERS\STUART\DOCUMENTS\UNIVERSITY_WORK\PROJECT\OPENPOSE\3RDPARTY\WINDOWS\CAFFE3RDPARTY\LIB\BOOST_SYSTEM-VC142-MT-X64-1_74.LIB
C:\USERS\STUART\DOCUMENTS\UNIVERSITY_WORK\PROJECT\OPENPOSE\3RDPARTY\WINDOWS\CAFFE3RDPARTY\LIB\BOOST_FILESYSTEM-VC142-MT-X64-1_74.LIB
C:\PROGRAM FILES (X86)\WINDOWS KITS\10\LIB\10.0.19041.0\UM\X64\KERNEL32.LIB
C:\PROGRAM FILES (X86)\WINDOWS KITS\10\LIB\10.0.19041.0\UM\X64\USER32.LIB
C:\PROGRAM FILES (X86)\WINDOWS KITS\10\LIB\10.0.19041.0\UM\X64\GDI32.LIB
C:\PROGRAM FILES (X86)\WINDOWS KITS\10\LIB\10.0.19041.0\UM\X64\WINSPOOL.LIB
C:\PROGRAM FILES (X86)\WINDOWS KITS\10\LIB\10.0.19041.0\UM\X64\SHELL32.LIB
C:\PROGRAM FILES (X86)\WINDOWS KITS\10\LIB\10.0.19041.0\UM\X64\OLE32.LIB
C:\PROGRAM FILES (X86)\WINDOWS KITS\10\LIB\10.0.19041.0\UM\X64\OLEAUT32.LIB
C:\PROGRAM FILES (X86)\WINDOWS KITS\10\LIB\10.0.19041.0\UM\X64\UUID.LIB
C:\PROGRAM FILES (X86)\WINDOWS KITS\10\LIB\10.0.19041.0\UM\X64\COMDLG32.LIB
C:\PROGRAM FILES (X86)\WINDOWS KITS\10\LIB\10.0.19041.0\UM\X64\ADVAPI32.LIB
C:\USERS\STUART\DOCUMENTS\UNIVERSITY_WORK\PROJECT\OPENPOSE\BUILD\EXAMPLES\CALIBRATION\CALIBRATION.DIR\RELEASE\CALIBRATION.OBJ
C:\WINDOWS\GLOBALIZATION\SORTING\SORTDEFAULT.NLS
E:\PROGRAM FILES (X86)\VISUAL STUDIO\VC\TOOLS\MSVC\14.16.27023\LIB\X64\MSVCPRT.LIB
E:\PROGRAM FILES (X86)\VISUAL STUDIO\VC\TOOLS\MSVC\14.16.27023\LIB\X64\MSVCRT.LIB
E:\PROGRAM FILES (X86)\VISUAL STUDIO\VC\TOOLS\MSVC\14.16.27023\LIB\X64\OLDNAMES.LIB
E:\PROGRAM FILES (X86)\VISUAL STUDIO\VC\TOOLS\MSVC\14.16.27023\LIB\X64\VCRUNTIME.LIB
C:\PROGRAM FILES (X86)\WINDOWS KITS\10\LIB\10.0.19041.0\UCRT\X64\UCRT.LIB
C:\WINDOWS\SYSTEM32\TZRES.DLL
E:\PROGRAM FILES (X86)\VISUAL STUDIO\VC\TOOLS\MSVC\14.16.27023\BIN\HOSTX86\X64\1033\LINKUI.DLL
C:\PROGRAM FILES (X86)\WINDOWS KITS\10\BIN\10.0.19041.0\X86\RC.EXE
E:\PROGRAM FILES (X86)\VISUAL STUDIO\VC\TOOLS\MSVC\14.16.27023\BIN\HOSTX86\X86\CVTRES.EXE
