^C:\USERS\STUART\DOCUMENTS\UNIVERSITY_WORK\PROJECT\OPENPOSE\EXAMPLES\TUTORIAL_API_CPP\14_SYNCHRONOUS_CUSTOM_INPUT.CPP
C:\USERS\STUART\DOCUMENTS\UNIVERSITY_WORK\PROJECT\OPENPOSE\BUILD\EXAMPLES\TUTORIAL_API_CPP\14_SYNCHRONOUS_CUSTOM_INPUT.DIR\DEBUG\VC141.PDB
C:\USERS\STUART\DOCUMENTS\UNIVERSITY_WORK\PROJECT\OPENPOSE\BUILD\EXAMPLES\TUTORIAL_API_CPP\14_SYNCHRONOUS_CUSTOM_INPUT.DIR\DEBUG\14_SYNCHRONOUS_CUSTOM_INPUT.OBJ
