﻿  13_asynchronous_custom_input_output_and_datum.cpp
     Creating library C:/Users/Stuart/Documents/University_Work/Project/openpose/build/examples/tutorial_api_cpp/Release/13_asynchronous_custom_input_output_and_datum.lib and object C:/Users/Stuart/Documents/University_Work/Project/openpose/build/examples/tutorial_api_cpp/Release/13_asynchronous_custom_input_output_and_datum.exp
  13_asynchronous_custom_input_output_and_datum.vcxproj -> C:\Users\Stuart\Documents\University_Work\Project\openpose\build\x64\Release\13_asynchronous_custom_input_output_and_datum.exe
