^C:\Users\Stuart\Documents\University_Work\Project\openpose\build\examples\deprecated\tutorial_add_module_custom_post_processing.vcxproj
C:\Users\Stuart\Documents\University_Work\Project\openpose\build\examples\deprecated\Release\tutorial_add_module_custom_post_processing.lib
C:\Users\Stuart\Documents\University_Work\Project\openpose\build\examples\deprecated\Release\tutorial_add_module_custom_post_processing.exp
