^C:\USERS\STUART\DOCUMENTS\UNIVERSITY_WORK\PROJECT\OPENPOSE\EXAMPLES\TUTORIAL_API_CPP\09_KEYPOINTS_FROM_HEATMAPS.CPP
C:\USERS\STUART\DOCUMENTS\UNIVERSITY_WORK\PROJECT\OPENPOSE\BUILD\EXAMPLES\TUTORIAL_API_CPP\09_KEYPOINTS_FROM_HEATMAPS.DIR\DEBUG\VC141.PDB
C:\USERS\STUART\DOCUMENTS\UNIVERSITY_WORK\PROJECT\OPENPOSE\BUILD\EXAMPLES\TUTORIAL_API_CPP\09_KEYPOINTS_FROM_HEATMAPS.DIR\DEBUG\09_KEYPOINTS_FROM_HEATMAPS.OBJ
