^C:\USERS\STUART\DOCUMENTS\UNIVERSITY_WORK\PROJECT\OPENPOSE\EXAMPLES\TUTORIAL_API_CPP\08_HEATMAPS_FROM_IMAGE.CPP
E:\PROGRAM FILES (X86)\VISUAL STUDIO\VC\TOOLS\MSVC\14.16.27023\BIN\HOSTX86\X64\1033\CLUI.DLL
C:\WINDOWS\GLOBALIZATION\SORTING\SORTDEFAULT.NLS
C:\WINDOWS\SYSTEM32\TZRES.DLL
C:\USERS\STUART\DOCUMENTS\UNIVERSITY_WORK\PROJECT\OPENPOSE\3RDPARTY\WINDOWS\OPENCV\INCLUDE\OPENCV2\OPENCV.HPP
C:\USERS\STUART\DOCUMENTS\UNIVERSITY_WORK\PROJECT\OPENPOSE\3RDPARTY\WINDOWS\OPENCV\INCLUDE\OPENCV2\OPENCV_MODULES.HPP
C:\USERS\STUART\DOCUMENTS\UNIVERSITY_WORK\PROJECT\OPENPOSE\3RDPARTY\WINDOWS\OPENCV\INCLUDE\OPENCV2\CORE.HPP
C:\USERS\STUART\DOCUMENTS\UNIVERSITY_WORK\PROJECT\OPENPOSE\3RDPARTY\WINDOWS\OPENCV\INCLUDE\OPENCV2\CORE\CVDEF.H
E:\PROGRAM FILES (X86)\VISUAL STUDIO\VC\TOOLS\MSVC\14.16.27023\INCLUDE\LIMITS
E:\PROGRAM FILES (X86)\VISUAL STUDIO\VC\TOOLS\MSVC\14.16.27023\INCLUDE\YMATH.H
E:\PROGRAM FILES (X86)\VISUAL STUDIO\VC\TOOLS\MSVC\14.16.27023\INCLUDE\YVALS.H
E:\PROGRAM FILES (X86)\VISUAL STUDIO\VC\TOOLS\MSVC\14.16.27023\INCLUDE\YVALS_CORE.H
E:\PROGRAM FILES (X86)\VISUAL STUDIO\VC\TOOLS\MSVC\14.16.27023\INCLUDE\XKEYCHECK.H
E:\PROGRAM FILES (X86)\VISUAL STUDIO\VC\TOOLS\MSVC\14.16.27023\INCLUDE\CRTDEFS.H
E:\PROGRAM FILES (X86)\VISUAL STUDIO\VC\TOOLS\MSVC\14.16.27023\INCLUDE\VCRUNTIME.H
E:\PROGRAM FILES (X86)\VISUAL STUDIO\VC\TOOLS\MSVC\14.16.27023\INCLUDE\SAL.H
E:\PROGRAM FILES (X86)\VISUAL STUDIO\VC\TOOLS\MSVC\14.16.27023\INCLUDE\CONCURRENCYSAL.H
E:\PROGRAM FILES (X86)\VISUAL STUDIO\VC\TOOLS\MSVC\14.16.27023\INCLUDE\VADEFS.H
C:\PROGRAM FILES (X86)\WINDOWS KITS\10\INCLUDE\10.0.19041.0\UCRT\CORECRT.H
C:\PROGRAM FILES (X86)\WINDOWS KITS\10\INCLUDE\10.0.19041.0\UCRT\CRTDBG.H
E:\PROGRAM FILES (X86)\VISUAL STUDIO\VC\TOOLS\MSVC\14.16.27023\INCLUDE\VCRUNTIME_NEW_DEBUG.H
E:\PROGRAM FILES (X86)\VISUAL STUDIO\VC\TOOLS\MSVC\14.16.27023\INCLUDE\VCRUNTIME_NEW.H
E:\PROGRAM FILES (X86)\VISUAL STUDIO\VC\TOOLS\MSVC\14.16.27023\INCLUDE\USE_ANSI.H
E:\PROGRAM FILES (X86)\VISUAL STUDIO\VC\TOOLS\MSVC\14.16.27023\INCLUDE\CFLOAT
C:\PROGRAM FILES (X86)\WINDOWS KITS\10\INCLUDE\10.0.19041.0\UCRT\FLOAT.H
E:\PROGRAM FILES (X86)\VISUAL STUDIO\VC\TOOLS\MSVC\14.16.27023\INCLUDE\CLIMITS
E:\PROGRAM FILES (X86)\VISUAL STUDIO\VC\TOOLS\MSVC\14.16.27023\INCLUDE\LIMITS.H
E:\PROGRAM FILES (X86)\VISUAL STUDIO\VC\TOOLS\MSVC\14.16.27023\INCLUDE\CMATH
E:\PROGRAM FILES (X86)\VISUAL STUDIO\VC\TOOLS\MSVC\14.16.27023\INCLUDE\CSTDLIB
C:\PROGRAM FILES (X86)\WINDOWS KITS\10\INCLUDE\10.0.19041.0\UCRT\STDLIB.H
C:\PROGRAM FILES (X86)\WINDOWS KITS\10\INCLUDE\10.0.19041.0\UCRT\CORECRT_MALLOC.H
C:\PROGRAM FILES (X86)\WINDOWS KITS\10\INCLUDE\10.0.19041.0\UCRT\CORECRT_SEARCH.H
C:\PROGRAM FILES (X86)\WINDOWS KITS\10\INCLUDE\10.0.19041.0\UCRT\STDDEF.H
C:\PROGRAM FILES (X86)\WINDOWS KITS\10\INCLUDE\10.0.19041.0\UCRT\CORECRT_WSTDLIB.H
C:\PROGRAM FILES (X86)\WINDOWS KITS\10\INCLUDE\10.0.19041.0\UCRT\MATH.H
C:\PROGRAM FILES (X86)\WINDOWS KITS\10\INCLUDE\10.0.19041.0\UCRT\CORECRT_MATH.H
E:\PROGRAM FILES (X86)\VISUAL STUDIO\VC\TOOLS\MSVC\14.16.27023\INCLUDE\XTGMATH.H
E:\PROGRAM FILES (X86)\VISUAL STUDIO\VC\TOOLS\MSVC\14.16.27023\INCLUDE\XTR1COMMON
E:\PROGRAM FILES (X86)\VISUAL STUDIO\VC\TOOLS\MSVC\14.16.27023\INCLUDE\CWCHAR
C:\PROGRAM FILES (X86)\WINDOWS KITS\10\INCLUDE\10.0.19041.0\UCRT\WCHAR.H
C:\PROGRAM FILES (X86)\WINDOWS KITS\10\INCLUDE\10.0.19041.0\UCRT\CORECRT_MEMCPY_S.H
C:\PROGRAM FILES (X86)\WINDOWS KITS\10\INCLUDE\10.0.19041.0\UCRT\ERRNO.H
E:\PROGRAM FILES (X86)\VISUAL STUDIO\VC\TOOLS\MSVC\14.16.27023\INCLUDE\VCRUNTIME_STRING.H
C:\PROGRAM FILES (X86)\WINDOWS KITS\10\INCLUDE\10.0.19041.0\UCRT\CORECRT_WCONIO.H
C:\PROGRAM FILES (X86)\WINDOWS KITS\10\INCLUDE\10.0.19041.0\UCRT\CORECRT_STDIO_CONFIG.H
C:\PROGRAM FILES (X86)\WINDOWS KITS\10\INCLUDE\10.0.19041.0\UCRT\CORECRT_WCTYPE.H
C:\PROGRAM FILES (X86)\WINDOWS KITS\10\INCLUDE\10.0.19041.0\UCRT\CORECRT_WDIRECT.H
C:\PROGRAM FILES (X86)\WINDOWS KITS\10\INCLUDE\10.0.19041.0\UCRT\CORECRT_WIO.H
C:\PROGRAM FILES (X86)\WINDOWS KITS\10\INCLUDE\10.0.19041.0\UCRT\CORECRT_SHARE.H
C:\PROGRAM FILES (X86)\WINDOWS KITS\10\INCLUDE\10.0.19041.0\UCRT\CORECRT_WPROCESS.H
C:\PROGRAM FILES (X86)\WINDOWS KITS\10\INCLUDE\10.0.19041.0\UCRT\CORECRT_WSTDIO.H
C:\PROGRAM FILES (X86)\WINDOWS KITS\10\INCLUDE\10.0.19041.0\UCRT\CORECRT_WSTRING.H
C:\PROGRAM FILES (X86)\WINDOWS KITS\10\INCLUDE\10.0.19041.0\UCRT\CORECRT_WTIME.H
C:\PROGRAM FILES (X86)\WINDOWS KITS\10\INCLUDE\10.0.19041.0\UCRT\SYS\STAT.H
C:\PROGRAM FILES (X86)\WINDOWS KITS\10\INCLUDE\10.0.19041.0\UCRT\SYS\TYPES.H
E:\PROGRAM FILES (X86)\VISUAL STUDIO\VC\TOOLS\MSVC\14.16.27023\INCLUDE\XSTDDEF
E:\PROGRAM FILES (X86)\VISUAL STUDIO\VC\TOOLS\MSVC\14.16.27023\INCLUDE\CSTDDEF
E:\PROGRAM FILES (X86)\VISUAL STUDIO\VC\TOOLS\MSVC\14.16.27023\INCLUDE\INITIALIZER_LIST
C:\USERS\STUART\DOCUMENTS\UNIVERSITY_WORK\PROJECT\OPENPOSE\3RDPARTY\WINDOWS\OPENCV\INCLUDE\OPENCV2\CORE\HAL\INTERFACE.H
C:\USERS\STUART\DOCUMENTS\UNIVERSITY_WORK\PROJECT\OPENPOSE\3RDPARTY\WINDOWS\OPENCV\INCLUDE\OPENCV2\CORE\CV_CPU_DISPATCH.H
E:\PROGRAM FILES (X86)\VISUAL STUDIO\VC\TOOLS\MSVC\14.16.27023\INCLUDE\EMMINTRIN.H
E:\PROGRAM FILES (X86)\VISUAL STUDIO\VC\TOOLS\MSVC\14.16.27023\INCLUDE\XMMINTRIN.H
E:\PROGRAM FILES (X86)\VISUAL STUDIO\VC\TOOLS\MSVC\14.16.27023\INCLUDE\MMINTRIN.H
C:\PROGRAM FILES (X86)\WINDOWS KITS\10\INCLUDE\10.0.19041.0\UCRT\MALLOC.H
E:\PROGRAM FILES (X86)\VISUAL STUDIO\VC\TOOLS\MSVC\14.16.27023\INCLUDE\INTRIN.H
E:\PROGRAM FILES (X86)\VISUAL STUDIO\VC\TOOLS\MSVC\14.16.27023\INCLUDE\INTRIN0.H
E:\PROGRAM FILES (X86)\VISUAL STUDIO\VC\TOOLS\MSVC\14.16.27023\INCLUDE\SETJMP.H
E:\PROGRAM FILES (X86)\VISUAL STUDIO\VC\TOOLS\MSVC\14.16.27023\INCLUDE\IMMINTRIN.H
E:\PROGRAM FILES (X86)\VISUAL STUDIO\VC\TOOLS\MSVC\14.16.27023\INCLUDE\WMMINTRIN.H
E:\PROGRAM FILES (X86)\VISUAL STUDIO\VC\TOOLS\MSVC\14.16.27023\INCLUDE\NMMINTRIN.H
E:\PROGRAM FILES (X86)\VISUAL STUDIO\VC\TOOLS\MSVC\14.16.27023\INCLUDE\SMMINTRIN.H
E:\PROGRAM FILES (X86)\VISUAL STUDIO\VC\TOOLS\MSVC\14.16.27023\INCLUDE\TMMINTRIN.H
E:\PROGRAM FILES (X86)\VISUAL STUDIO\VC\TOOLS\MSVC\14.16.27023\INCLUDE\PMMINTRIN.H
E:\PROGRAM FILES (X86)\VISUAL STUDIO\VC\TOOLS\MSVC\14.16.27023\INCLUDE\ZMMINTRIN.H
E:\PROGRAM FILES (X86)\VISUAL STUDIO\VC\TOOLS\MSVC\14.16.27023\INCLUDE\AMMINTRIN.H
E:\PROGRAM FILES (X86)\VISUAL STUDIO\VC\TOOLS\MSVC\14.16.27023\INCLUDE\ARRAY
E:\PROGRAM FILES (X86)\VISUAL STUDIO\VC\TOOLS\MSVC\14.16.27023\INCLUDE\ALGORITHM
E:\PROGRAM FILES (X86)\VISUAL STUDIO\VC\TOOLS\MSVC\14.16.27023\INCLUDE\XMEMORY
E:\PROGRAM FILES (X86)\VISUAL STUDIO\VC\TOOLS\MSVC\14.16.27023\INCLUDE\XMEMORY0
E:\PROGRAM FILES (X86)\VISUAL STUDIO\VC\TOOLS\MSVC\14.16.27023\INCLUDE\CSTDINT
E:\PROGRAM FILES (X86)\VISUAL STUDIO\VC\TOOLS\MSVC\14.16.27023\INCLUDE\STDINT.H
E:\PROGRAM FILES (X86)\VISUAL STUDIO\VC\TOOLS\MSVC\14.16.27023\INCLUDE\NEW
E:\PROGRAM FILES (X86)\VISUAL STUDIO\VC\TOOLS\MSVC\14.16.27023\INCLUDE\EXCEPTION
E:\PROGRAM FILES (X86)\VISUAL STUDIO\VC\TOOLS\MSVC\14.16.27023\INCLUDE\TYPE_TRAITS
E:\PROGRAM FILES (X86)\VISUAL STUDIO\VC\TOOLS\MSVC\14.16.27023\INCLUDE\VCRUNTIME_EXCEPTION.H
E:\PROGRAM FILES (X86)\VISUAL STUDIO\VC\TOOLS\MSVC\14.16.27023\INCLUDE\EH.H
C:\PROGRAM FILES (X86)\WINDOWS KITS\10\INCLUDE\10.0.19041.0\UCRT\CORECRT_TERMINATE.H
E:\PROGRAM FILES (X86)\VISUAL STUDIO\VC\TOOLS\MSVC\14.16.27023\INCLUDE\XUTILITY
E:\PROGRAM FILES (X86)\VISUAL STUDIO\VC\TOOLS\MSVC\14.16.27023\INCLUDE\UTILITY
E:\PROGRAM FILES (X86)\VISUAL STUDIO\VC\TOOLS\MSVC\14.16.27023\INCLUDE\IOSFWD
E:\PROGRAM FILES (X86)\VISUAL STUDIO\VC\TOOLS\MSVC\14.16.27023\INCLUDE\CSTDIO
C:\PROGRAM FILES (X86)\WINDOWS KITS\10\INCLUDE\10.0.19041.0\UCRT\STDIO.H
E:\PROGRAM FILES (X86)\VISUAL STUDIO\VC\TOOLS\MSVC\14.16.27023\INCLUDE\CSTRING
C:\PROGRAM FILES (X86)\WINDOWS KITS\10\INCLUDE\10.0.19041.0\UCRT\STRING.H
C:\PROGRAM FILES (X86)\WINDOWS KITS\10\INCLUDE\10.0.19041.0\UCRT\CORECRT_MEMORY.H
E:\PROGRAM FILES (X86)\VISUAL STUDIO\VC\TOOLS\MSVC\14.16.27023\INCLUDE\XATOMIC0.H
E:\PROGRAM FILES (X86)\VISUAL STUDIO\VC\TOOLS\MSVC\14.16.27023\INCLUDE\ITERATOR
E:\PROGRAM FILES (X86)\VISUAL STUDIO\VC\TOOLS\MSVC\14.16.27023\INCLUDE\ISTREAM
E:\PROGRAM FILES (X86)\VISUAL STUDIO\VC\TOOLS\MSVC\14.16.27023\INCLUDE\OSTREAM
E:\PROGRAM FILES (X86)\VISUAL STUDIO\VC\TOOLS\MSVC\14.16.27023\INCLUDE\IOS
E:\PROGRAM FILES (X86)\VISUAL STUDIO\VC\TOOLS\MSVC\14.16.27023\INCLUDE\XLOCNUM
E:\PROGRAM FILES (X86)\VISUAL STUDIO\VC\TOOLS\MSVC\14.16.27023\INCLUDE\STREAMBUF
E:\PROGRAM FILES (X86)\VISUAL STUDIO\VC\TOOLS\MSVC\14.16.27023\INCLUDE\XIOSBASE
E:\PROGRAM FILES (X86)\VISUAL STUDIO\VC\TOOLS\MSVC\14.16.27023\INCLUDE\XLOCALE
E:\PROGRAM FILES (X86)\VISUAL STUDIO\VC\TOOLS\MSVC\14.16.27023\INCLUDE\STDEXCEPT
E:\PROGRAM FILES (X86)\VISUAL STUDIO\VC\TOOLS\MSVC\14.16.27023\INCLUDE\XSTRING
E:\PROGRAM FILES (X86)\VISUAL STUDIO\VC\TOOLS\MSVC\14.16.27023\INCLUDE\TYPEINFO
E:\PROGRAM FILES (X86)\VISUAL STUDIO\VC\TOOLS\MSVC\14.16.27023\INCLUDE\VCRUNTIME_TYPEINFO.H
E:\PROGRAM FILES (X86)\VISUAL STUDIO\VC\TOOLS\MSVC\14.16.27023\INCLUDE\XLOCINFO
E:\PROGRAM FILES (X86)\VISUAL STUDIO\VC\TOOLS\MSVC\14.16.27023\INCLUDE\XLOCINFO.H
C:\PROGRAM FILES (X86)\WINDOWS KITS\10\INCLUDE\10.0.19041.0\UCRT\CTYPE.H
C:\PROGRAM FILES (X86)\WINDOWS KITS\10\INCLUDE\10.0.19041.0\UCRT\LOCALE.H
E:\PROGRAM FILES (X86)\VISUAL STUDIO\VC\TOOLS\MSVC\14.16.27023\INCLUDE\MEMORY
E:\PROGRAM FILES (X86)\VISUAL STUDIO\VC\TOOLS\MSVC\14.16.27023\INCLUDE\XFACET
E:\PROGRAM FILES (X86)\VISUAL STUDIO\VC\TOOLS\MSVC\14.16.27023\INCLUDE\SYSTEM_ERROR
E:\PROGRAM FILES (X86)\VISUAL STUDIO\VC\TOOLS\MSVC\14.16.27023\INCLUDE\CERRNO
E:\PROGRAM FILES (X86)\VISUAL STUDIO\VC\TOOLS\MSVC\14.16.27023\INCLUDE\XCALL_ONCE.H
E:\PROGRAM FILES (X86)\VISUAL STUDIO\VC\TOOLS\MSVC\14.16.27023\INCLUDE\XERRC.H
C:\PROGRAM FILES (X86)\WINDOWS KITS\10\INCLUDE\10.0.19041.0\UCRT\SHARE.H
E:\PROGRAM FILES (X86)\VISUAL STUDIO\VC\TOOLS\MSVC\14.16.27023\INCLUDE\TUPLE
C:\USERS\STUART\DOCUMENTS\UNIVERSITY_WORK\PROJECT\OPENPOSE\3RDPARTY\WINDOWS\OPENCV\INCLUDE\OPENCV2\CORE\VERSION.HPP
C:\USERS\STUART\DOCUMENTS\UNIVERSITY_WORK\PROJECT\OPENPOSE\3RDPARTY\WINDOWS\OPENCV\INCLUDE\OPENCV2\CORE\BASE.HPP
C:\USERS\STUART\DOCUMENTS\UNIVERSITY_WORK\PROJECT\OPENPOSE\3RDPARTY\WINDOWS\OPENCV\INCLUDE\OPENCV2\CORE\CVSTD.HPP
E:\PROGRAM FILES (X86)\VISUAL STUDIO\VC\TOOLS\MSVC\14.16.27023\INCLUDE\CCTYPE
E:\PROGRAM FILES (X86)\VISUAL STUDIO\VC\TOOLS\MSVC\14.16.27023\INCLUDE\STRING
E:\PROGRAM FILES (X86)\VISUAL STUDIO\VC\TOOLS\MSVC\14.16.27023\INCLUDE\XSTRING_INSERT.H
C:\USERS\STUART\DOCUMENTS\UNIVERSITY_WORK\PROJECT\OPENPOSE\3RDPARTY\WINDOWS\OPENCV\INCLUDE\OPENCV2\CORE\CVSTD_WRAPPER.HPP
C:\USERS\STUART\DOCUMENTS\UNIVERSITY_WORK\PROJECT\OPENPOSE\3RDPARTY\WINDOWS\OPENCV\INCLUDE\OPENCV2\CORE\NEON_UTILS.HPP
C:\USERS\STUART\DOCUMENTS\UNIVERSITY_WORK\PROJECT\OPENPOSE\3RDPARTY\WINDOWS\OPENCV\INCLUDE\OPENCV2\CORE\VSX_UTILS.HPP
C:\PROGRAM FILES (X86)\WINDOWS KITS\10\INCLUDE\10.0.19041.0\UCRT\ASSERT.H
C:\USERS\STUART\DOCUMENTS\UNIVERSITY_WORK\PROJECT\OPENPOSE\3RDPARTY\WINDOWS\OPENCV\INCLUDE\OPENCV2\CORE\CHECK.HPP
C:\USERS\STUART\DOCUMENTS\UNIVERSITY_WORK\PROJECT\OPENPOSE\3RDPARTY\WINDOWS\OPENCV\INCLUDE\OPENCV2\CORE\TRAITS.HPP
C:\USERS\STUART\DOCUMENTS\UNIVERSITY_WORK\PROJECT\OPENPOSE\3RDPARTY\WINDOWS\OPENCV\INCLUDE\OPENCV2\CORE\MATX.HPP
C:\USERS\STUART\DOCUMENTS\UNIVERSITY_WORK\PROJECT\OPENPOSE\3RDPARTY\WINDOWS\OPENCV\INCLUDE\OPENCV2\CORE\SATURATE.HPP
C:\USERS\STUART\DOCUMENTS\UNIVERSITY_WORK\PROJECT\OPENPOSE\3RDPARTY\WINDOWS\OPENCV\INCLUDE\OPENCV2\CORE\FAST_MATH.HPP
C:\USERS\STUART\DOCUMENTS\UNIVERSITY_WORK\PROJECT\OPENPOSE\3RDPARTY\WINDOWS\OPENCV\INCLUDE\OPENCV2\CORE\TYPES.HPP
E:\PROGRAM FILES (X86)\VISUAL STUDIO\VC\TOOLS\MSVC\14.16.27023\INCLUDE\VECTOR
C:\USERS\STUART\DOCUMENTS\UNIVERSITY_WORK\PROJECT\OPENPOSE\3RDPARTY\WINDOWS\OPENCV\INCLUDE\OPENCV2\CORE\MAT.HPP
C:\USERS\STUART\DOCUMENTS\UNIVERSITY_WORK\PROJECT\OPENPOSE\3RDPARTY\WINDOWS\OPENCV\INCLUDE\OPENCV2\CORE\BUFFERPOOL.HPP
C:\USERS\STUART\DOCUMENTS\UNIVERSITY_WORK\PROJECT\OPENPOSE\3RDPARTY\WINDOWS\OPENCV\INCLUDE\OPENCV2\CORE\MAT.INL.HPP
C:\USERS\STUART\DOCUMENTS\UNIVERSITY_WORK\PROJECT\OPENPOSE\3RDPARTY\WINDOWS\OPENCV\INCLUDE\OPENCV2\CORE\PERSISTENCE.HPP
C:\USERS\STUART\DOCUMENTS\UNIVERSITY_WORK\PROJECT\OPENPOSE\3RDPARTY\WINDOWS\OPENCV\INCLUDE\OPENCV2\CORE\OPERATIONS.HPP
C:\USERS\STUART\DOCUMENTS\UNIVERSITY_WORK\PROJECT\OPENPOSE\3RDPARTY\WINDOWS\OPENCV\INCLUDE\OPENCV2\CORE\CVSTD.INL.HPP
E:\PROGRAM FILES (X86)\VISUAL STUDIO\VC\TOOLS\MSVC\14.16.27023\INCLUDE\COMPLEX
E:\PROGRAM FILES (X86)\VISUAL STUDIO\VC\TOOLS\MSVC\14.16.27023\INCLUDE\SSTREAM
C:\USERS\STUART\DOCUMENTS\UNIVERSITY_WORK\PROJECT\OPENPOSE\3RDPARTY\WINDOWS\OPENCV\INCLUDE\OPENCV2\CORE\UTILITY.HPP
E:\PROGRAM FILES (X86)\VISUAL STUDIO\VC\TOOLS\MSVC\14.16.27023\INCLUDE\FUNCTIONAL
E:\PROGRAM FILES (X86)\VISUAL STUDIO\VC\TOOLS\MSVC\14.16.27023\INCLUDE\MUTEX
E:\PROGRAM FILES (X86)\VISUAL STUDIO\VC\TOOLS\MSVC\14.16.27023\INCLUDE\CHRONO
E:\PROGRAM FILES (X86)\VISUAL STUDIO\VC\TOOLS\MSVC\14.16.27023\INCLUDE\RATIO
C:\PROGRAM FILES (X86)\WINDOWS KITS\10\INCLUDE\10.0.19041.0\UCRT\TIME.H
E:\PROGRAM FILES (X86)\VISUAL STUDIO\VC\TOOLS\MSVC\14.16.27023\INCLUDE\THR\XTIMEC.H
E:\PROGRAM FILES (X86)\VISUAL STUDIO\VC\TOOLS\MSVC\14.16.27023\INCLUDE\THR\XTHRCOMMON.H
E:\PROGRAM FILES (X86)\VISUAL STUDIO\VC\TOOLS\MSVC\14.16.27023\INCLUDE\THREAD
E:\PROGRAM FILES (X86)\VISUAL STUDIO\VC\TOOLS\MSVC\14.16.27023\INCLUDE\THR\XTHREAD
E:\PROGRAM FILES (X86)\VISUAL STUDIO\VC\TOOLS\MSVC\14.16.27023\INCLUDE\THR\XTIME
E:\PROGRAM FILES (X86)\VISUAL STUDIO\VC\TOOLS\MSVC\14.16.27023\INCLUDE\THR\XTHREADS.H
C:\USERS\STUART\DOCUMENTS\UNIVERSITY_WORK\PROJECT\OPENPOSE\3RDPARTY\WINDOWS\OPENCV\INCLUDE\OPENCV2\CORE\OPTIM.HPP
C:\USERS\STUART\DOCUMENTS\UNIVERSITY_WORK\PROJECT\OPENPOSE\3RDPARTY\WINDOWS\OPENCV\INCLUDE\OPENCV2\CORE\OVX.HPP
C:\USERS\STUART\DOCUMENTS\UNIVERSITY_WORK\PROJECT\OPENPOSE\3RDPARTY\WINDOWS\OPENCV\INCLUDE\OPENCV2\CALIB3D.HPP
C:\USERS\STUART\DOCUMENTS\UNIVERSITY_WORK\PROJECT\OPENPOSE\3RDPARTY\WINDOWS\OPENCV\INCLUDE\OPENCV2\FEATURES2D.HPP
C:\USERS\STUART\DOCUMENTS\UNIVERSITY_WORK\PROJECT\OPENPOSE\3RDPARTY\WINDOWS\OPENCV\INCLUDE\OPENCV2\FLANN\MINIFLANN.HPP
C:\USERS\STUART\DOCUMENTS\UNIVERSITY_WORK\PROJECT\OPENPOSE\3RDPARTY\WINDOWS\OPENCV\INCLUDE\OPENCV2\FLANN\DEFINES.H
C:\USERS\STUART\DOCUMENTS\UNIVERSITY_WORK\PROJECT\OPENPOSE\3RDPARTY\WINDOWS\OPENCV\INCLUDE\OPENCV2\FLANN\CONFIG.H
C:\USERS\STUART\DOCUMENTS\UNIVERSITY_WORK\PROJECT\OPENPOSE\3RDPARTY\WINDOWS\OPENCV\INCLUDE\OPENCV2\CORE\AFFINE.HPP
C:\USERS\STUART\DOCUMENTS\UNIVERSITY_WORK\PROJECT\OPENPOSE\3RDPARTY\WINDOWS\OPENCV\INCLUDE\OPENCV2\DNN.HPP
C:\USERS\STUART\DOCUMENTS\UNIVERSITY_WORK\PROJECT\OPENPOSE\3RDPARTY\WINDOWS\OPENCV\INCLUDE\OPENCV2\DNN\DNN.HPP
C:\USERS\STUART\DOCUMENTS\UNIVERSITY_WORK\PROJECT\OPENPOSE\3RDPARTY\WINDOWS\OPENCV\INCLUDE\OPENCV2\CORE\ASYNC.HPP
C:\USERS\STUART\DOCUMENTS\UNIVERSITY_WORK\PROJECT\OPENPOSE\3RDPARTY\WINDOWS\OPENCV\INCLUDE\OPENCV2\DNN\VERSION.HPP
C:\USERS\STUART\DOCUMENTS\UNIVERSITY_WORK\PROJECT\OPENPOSE\3RDPARTY\WINDOWS\OPENCV\INCLUDE\OPENCV2\DNN\DICT.HPP
E:\PROGRAM FILES (X86)\VISUAL STUDIO\VC\TOOLS\MSVC\14.16.27023\INCLUDE\MAP
E:\PROGRAM FILES (X86)\VISUAL STUDIO\VC\TOOLS\MSVC\14.16.27023\INCLUDE\XTREE
C:\USERS\STUART\DOCUMENTS\UNIVERSITY_WORK\PROJECT\OPENPOSE\3RDPARTY\WINDOWS\OPENCV\INCLUDE\OPENCV2\DNN\LAYER.HPP
C:\USERS\STUART\DOCUMENTS\UNIVERSITY_WORK\PROJECT\OPENPOSE\3RDPARTY\WINDOWS\OPENCV\INCLUDE\OPENCV2\DNN\DNN.INL.HPP
C:\USERS\STUART\DOCUMENTS\UNIVERSITY_WORK\PROJECT\OPENPOSE\3RDPARTY\WINDOWS\OPENCV\INCLUDE\OPENCV2\DNN\UTILS\INFERENCE_ENGINE.HPP
C:\USERS\STUART\DOCUMENTS\UNIVERSITY_WORK\PROJECT\OPENPOSE\3RDPARTY\WINDOWS\OPENCV\INCLUDE\OPENCV2\FLANN.HPP
C:\USERS\STUART\DOCUMENTS\UNIVERSITY_WORK\PROJECT\OPENPOSE\3RDPARTY\WINDOWS\OPENCV\INCLUDE\OPENCV2\FLANN\FLANN_BASE.HPP
C:\USERS\STUART\DOCUMENTS\UNIVERSITY_WORK\PROJECT\OPENPOSE\3RDPARTY\WINDOWS\OPENCV\INCLUDE\OPENCV2\FLANN\GENERAL.H
C:\USERS\STUART\DOCUMENTS\UNIVERSITY_WORK\PROJECT\OPENPOSE\3RDPARTY\WINDOWS\OPENCV\INCLUDE\OPENCV2\FLANN\MATRIX.H
C:\USERS\STUART\DOCUMENTS\UNIVERSITY_WORK\PROJECT\OPENPOSE\3RDPARTY\WINDOWS\OPENCV\INCLUDE\OPENCV2\FLANN\PARAMS.H
C:\USERS\STUART\DOCUMENTS\UNIVERSITY_WORK\PROJECT\OPENPOSE\3RDPARTY\WINDOWS\OPENCV\INCLUDE\OPENCV2\FLANN\ANY.H
E:\PROGRAM FILES (X86)\VISUAL STUDIO\VC\TOOLS\MSVC\14.16.27023\INCLUDE\IOSTREAM
C:\USERS\STUART\DOCUMENTS\UNIVERSITY_WORK\PROJECT\OPENPOSE\3RDPARTY\WINDOWS\OPENCV\INCLUDE\OPENCV2\FLANN\SAVING.H
C:\USERS\STUART\DOCUMENTS\UNIVERSITY_WORK\PROJECT\OPENPOSE\3RDPARTY\WINDOWS\OPENCV\INCLUDE\OPENCV2\FLANN\NN_INDEX.H
C:\USERS\STUART\DOCUMENTS\UNIVERSITY_WORK\PROJECT\OPENPOSE\3RDPARTY\WINDOWS\OPENCV\INCLUDE\OPENCV2\FLANN\RESULT_SET.H
E:\PROGRAM FILES (X86)\VISUAL STUDIO\VC\TOOLS\MSVC\14.16.27023\INCLUDE\SET
C:\USERS\STUART\DOCUMENTS\UNIVERSITY_WORK\PROJECT\OPENPOSE\3RDPARTY\WINDOWS\OPENCV\INCLUDE\OPENCV2\FLANN\ALL_INDICES.H
C:\USERS\STUART\DOCUMENTS\UNIVERSITY_WORK\PROJECT\OPENPOSE\3RDPARTY\WINDOWS\OPENCV\INCLUDE\OPENCV2\FLANN\KDTREE_INDEX.H
C:\USERS\STUART\DOCUMENTS\UNIVERSITY_WORK\PROJECT\OPENPOSE\3RDPARTY\WINDOWS\OPENCV\INCLUDE\OPENCV2\FLANN\DYNAMIC_BITSET.H
C:\USERS\STUART\DOCUMENTS\UNIVERSITY_WORK\PROJECT\OPENPOSE\3RDPARTY\WINDOWS\OPENCV\INCLUDE\OPENCV2\FLANN\DIST.H
C:\USERS\STUART\DOCUMENTS\UNIVERSITY_WORK\PROJECT\OPENPOSE\3RDPARTY\WINDOWS\OPENCV\INCLUDE\OPENCV2\FLANN\HEAP.H
C:\USERS\STUART\DOCUMENTS\UNIVERSITY_WORK\PROJECT\OPENPOSE\3RDPARTY\WINDOWS\OPENCV\INCLUDE\OPENCV2\FLANN\ALLOCATOR.H
C:\USERS\STUART\DOCUMENTS\UNIVERSITY_WORK\PROJECT\OPENPOSE\3RDPARTY\WINDOWS\OPENCV\INCLUDE\OPENCV2\FLANN\RANDOM.H
C:\USERS\STUART\DOCUMENTS\UNIVERSITY_WORK\PROJECT\OPENPOSE\3RDPARTY\WINDOWS\OPENCV\INCLUDE\OPENCV2\FLANN\KDTREE_SINGLE_INDEX.H
C:\USERS\STUART\DOCUMENTS\UNIVERSITY_WORK\PROJECT\OPENPOSE\3RDPARTY\WINDOWS\OPENCV\INCLUDE\OPENCV2\FLANN\KMEANS_INDEX.H
C:\USERS\STUART\DOCUMENTS\UNIVERSITY_WORK\PROJECT\OPENPOSE\3RDPARTY\WINDOWS\OPENCV\INCLUDE\OPENCV2\FLANN\LOGGER.H
E:\PROGRAM FILES (X86)\VISUAL STUDIO\VC\TOOLS\MSVC\14.16.27023\INCLUDE\STDARG.H
C:\USERS\STUART\DOCUMENTS\UNIVERSITY_WORK\PROJECT\OPENPOSE\3RDPARTY\WINDOWS\OPENCV\INCLUDE\OPENCV2\FLANN\COMPOSITE_INDEX.H
C:\USERS\STUART\DOCUMENTS\UNIVERSITY_WORK\PROJECT\OPENPOSE\3RDPARTY\WINDOWS\OPENCV\INCLUDE\OPENCV2\FLANN\LINEAR_INDEX.H
C:\USERS\STUART\DOCUMENTS\UNIVERSITY_WORK\PROJECT\OPENPOSE\3RDPARTY\WINDOWS\OPENCV\INCLUDE\OPENCV2\FLANN\HIERARCHICAL_CLUSTERING_INDEX.H
C:\USERS\STUART\DOCUMENTS\UNIVERSITY_WORK\PROJECT\OPENPOSE\3RDPARTY\WINDOWS\OPENCV\INCLUDE\OPENCV2\FLANN\LSH_INDEX.H
C:\USERS\STUART\DOCUMENTS\UNIVERSITY_WORK\PROJECT\OPENPOSE\3RDPARTY\WINDOWS\OPENCV\INCLUDE\OPENCV2\FLANN\LSH_TABLE.H
E:\PROGRAM FILES (X86)\VISUAL STUDIO\VC\TOOLS\MSVC\14.16.27023\INCLUDE\IOMANIP
E:\PROGRAM FILES (X86)\VISUAL STUDIO\VC\TOOLS\MSVC\14.16.27023\INCLUDE\XLOCMON
E:\PROGRAM FILES (X86)\VISUAL STUDIO\VC\TOOLS\MSVC\14.16.27023\INCLUDE\XLOCTIME
E:\PROGRAM FILES (X86)\VISUAL STUDIO\VC\TOOLS\MSVC\14.16.27023\INCLUDE\CTIME
C:\USERS\STUART\DOCUMENTS\UNIVERSITY_WORK\PROJECT\OPENPOSE\3RDPARTY\WINDOWS\OPENCV\INCLUDE\OPENCV2\FLANN\AUTOTUNED_INDEX.H
C:\USERS\STUART\DOCUMENTS\UNIVERSITY_WORK\PROJECT\OPENPOSE\3RDPARTY\WINDOWS\OPENCV\INCLUDE\OPENCV2\FLANN\GROUND_TRUTH.H
C:\USERS\STUART\DOCUMENTS\UNIVERSITY_WORK\PROJECT\OPENPOSE\3RDPARTY\WINDOWS\OPENCV\INCLUDE\OPENCV2\FLANN\INDEX_TESTING.H
C:\USERS\STUART\DOCUMENTS\UNIVERSITY_WORK\PROJECT\OPENPOSE\3RDPARTY\WINDOWS\OPENCV\INCLUDE\OPENCV2\FLANN\TIMER.H
C:\USERS\STUART\DOCUMENTS\UNIVERSITY_WORK\PROJECT\OPENPOSE\3RDPARTY\WINDOWS\OPENCV\INCLUDE\OPENCV2\FLANN\SAMPLING.H
C:\USERS\STUART\DOCUMENTS\UNIVERSITY_WORK\PROJECT\OPENPOSE\3RDPARTY\WINDOWS\OPENCV\INCLUDE\OPENCV2\HIGHGUI.HPP
C:\USERS\STUART\DOCUMENTS\UNIVERSITY_WORK\PROJECT\OPENPOSE\3RDPARTY\WINDOWS\OPENCV\INCLUDE\OPENCV2\IMGCODECS.HPP
C:\USERS\STUART\DOCUMENTS\UNIVERSITY_WORK\PROJECT\OPENPOSE\3RDPARTY\WINDOWS\OPENCV\INCLUDE\OPENCV2\VIDEOIO.HPP
C:\USERS\STUART\DOCUMENTS\UNIVERSITY_WORK\PROJECT\OPENPOSE\3RDPARTY\WINDOWS\OPENCV\INCLUDE\OPENCV2\IMGPROC.HPP
C:\USERS\STUART\DOCUMENTS\UNIVERSITY_WORK\PROJECT\OPENPOSE\3RDPARTY\WINDOWS\OPENCV\INCLUDE\OPENCV2\ML.HPP
C:\USERS\STUART\DOCUMENTS\UNIVERSITY_WORK\PROJECT\OPENPOSE\3RDPARTY\WINDOWS\OPENCV\INCLUDE\OPENCV2\ML\ML.INL.HPP
C:\USERS\STUART\DOCUMENTS\UNIVERSITY_WORK\PROJECT\OPENPOSE\3RDPARTY\WINDOWS\OPENCV\INCLUDE\OPENCV2\OBJDETECT.HPP
C:\USERS\STUART\DOCUMENTS\UNIVERSITY_WORK\PROJECT\OPENPOSE\3RDPARTY\WINDOWS\OPENCV\INCLUDE\OPENCV2\OBJDETECT\DETECTION_BASED_TRACKER.HPP
C:\USERS\STUART\DOCUMENTS\UNIVERSITY_WORK\PROJECT\OPENPOSE\3RDPARTY\WINDOWS\OPENCV\INCLUDE\OPENCV2\PHOTO.HPP
C:\USERS\STUART\DOCUMENTS\UNIVERSITY_WORK\PROJECT\OPENPOSE\3RDPARTY\WINDOWS\OPENCV\INCLUDE\OPENCV2\STITCHING.HPP
C:\USERS\STUART\DOCUMENTS\UNIVERSITY_WORK\PROJECT\OPENPOSE\3RDPARTY\WINDOWS\OPENCV\INCLUDE\OPENCV2\STITCHING\WARPERS.HPP
C:\USERS\STUART\DOCUMENTS\UNIVERSITY_WORK\PROJECT\OPENPOSE\3RDPARTY\WINDOWS\OPENCV\INCLUDE\OPENCV2\STITCHING\DETAIL\WARPERS.HPP
C:\USERS\STUART\DOCUMENTS\UNIVERSITY_WORK\PROJECT\OPENPOSE\3RDPARTY\WINDOWS\OPENCV\INCLUDE\OPENCV2\CORE\CUDA.HPP
C:\USERS\STUART\DOCUMENTS\UNIVERSITY_WORK\PROJECT\OPENPOSE\3RDPARTY\WINDOWS\OPENCV\INCLUDE\OPENCV2\CORE\CUDA_TYPES.HPP
C:\USERS\STUART\DOCUMENTS\UNIVERSITY_WORK\PROJECT\OPENPOSE\3RDPARTY\WINDOWS\OPENCV\INCLUDE\OPENCV2\CORE\CUDA.INL.HPP
C:\USERS\STUART\DOCUMENTS\UNIVERSITY_WORK\PROJECT\OPENPOSE\3RDPARTY\WINDOWS\OPENCV\INCLUDE\OPENCV2\STITCHING\DETAIL\WARPERS_INL.HPP
C:\USERS\STUART\DOCUMENTS\UNIVERSITY_WORK\PROJECT\OPENPOSE\3RDPARTY\WINDOWS\OPENCV\INCLUDE\OPENCV2\STITCHING\DETAIL\MATCHERS.HPP
C:\USERS\STUART\DOCUMENTS\UNIVERSITY_WORK\PROJECT\OPENPOSE\3RDPARTY\WINDOWS\OPENCV\INCLUDE\OPENCV2\STITCHING\DETAIL\MOTION_ESTIMATORS.HPP
C:\USERS\STUART\DOCUMENTS\UNIVERSITY_WORK\PROJECT\OPENPOSE\3RDPARTY\WINDOWS\OPENCV\INCLUDE\OPENCV2\STITCHING\DETAIL\UTIL.HPP
E:\PROGRAM FILES (X86)\VISUAL STUDIO\VC\TOOLS\MSVC\14.16.27023\INCLUDE\LIST
C:\USERS\STUART\DOCUMENTS\UNIVERSITY_WORK\PROJECT\OPENPOSE\3RDPARTY\WINDOWS\OPENCV\INCLUDE\OPENCV2\STITCHING\DETAIL\UTIL_INL.HPP
E:\PROGRAM FILES (X86)\VISUAL STUDIO\VC\TOOLS\MSVC\14.16.27023\INCLUDE\QUEUE
E:\PROGRAM FILES (X86)\VISUAL STUDIO\VC\TOOLS\MSVC\14.16.27023\INCLUDE\DEQUE
C:\USERS\STUART\DOCUMENTS\UNIVERSITY_WORK\PROJECT\OPENPOSE\3RDPARTY\WINDOWS\OPENCV\INCLUDE\OPENCV2\STITCHING\DETAIL\CAMERA.HPP
C:\USERS\STUART\DOCUMENTS\UNIVERSITY_WORK\PROJECT\OPENPOSE\3RDPARTY\WINDOWS\OPENCV\INCLUDE\OPENCV2\STITCHING\DETAIL\EXPOSURE_COMPENSATE.HPP
C:\USERS\STUART\DOCUMENTS\UNIVERSITY_WORK\PROJECT\OPENPOSE\3RDPARTY\WINDOWS\OPENCV\INCLUDE\OPENCV2\STITCHING\DETAIL\SEAM_FINDERS.HPP
C:\USERS\STUART\DOCUMENTS\UNIVERSITY_WORK\PROJECT\OPENPOSE\3RDPARTY\WINDOWS\OPENCV\INCLUDE\OPENCV2\STITCHING\DETAIL\BLENDERS.HPP
C:\USERS\STUART\DOCUMENTS\UNIVERSITY_WORK\PROJECT\OPENPOSE\3RDPARTY\WINDOWS\OPENCV\INCLUDE\OPENCV2\VIDEO.HPP
C:\USERS\STUART\DOCUMENTS\UNIVERSITY_WORK\PROJECT\OPENPOSE\3RDPARTY\WINDOWS\OPENCV\INCLUDE\OPENCV2\VIDEO\TRACKING.HPP
C:\USERS\STUART\DOCUMENTS\UNIVERSITY_WORK\PROJECT\OPENPOSE\3RDPARTY\WINDOWS\OPENCV\INCLUDE\OPENCV2\VIDEO\BACKGROUND_SEGM.HPP
C:\USERS\STUART\DOCUMENTS\UNIVERSITY_WORK\PROJECT\OPENPOSE\INCLUDE\OPENPOSE\FLAGS.HPP
C:\USERS\STUART\DOCUMENTS\UNIVERSITY_WORK\PROJECT\OPENPOSE\3RDPARTY\WINDOWS\CAFFE3RDPARTY\INCLUDE\GFLAGS\GFLAGS.H
C:\USERS\STUART\DOCUMENTS\UNIVERSITY_WORK\PROJECT\OPENPOSE\3RDPARTY\WINDOWS\CAFFE3RDPARTY\INCLUDE\GFLAGS\GFLAGS_DECLARE.H
C:\USERS\STUART\DOCUMENTS\UNIVERSITY_WORK\PROJECT\OPENPOSE\3RDPARTY\WINDOWS\CAFFE3RDPARTY\INCLUDE\GFLAGS\GFLAGS_GFLAGS.H
C:\USERS\STUART\DOCUMENTS\UNIVERSITY_WORK\PROJECT\OPENPOSE\INCLUDE\OPENPOSE\HEADERS.HPP
C:\USERS\STUART\DOCUMENTS\UNIVERSITY_WORK\PROJECT\OPENPOSE\INCLUDE\OPENPOSE\3D\HEADERS.HPP
C:\USERS\STUART\DOCUMENTS\UNIVERSITY_WORK\PROJECT\OPENPOSE\INCLUDE\OPENPOSE\3D\CAMERAPARAMETERREADER.HPP
C:\USERS\STUART\DOCUMENTS\UNIVERSITY_WORK\PROJECT\OPENPOSE\INCLUDE\OPENPOSE\CORE\COMMON.HPP
C:\USERS\STUART\DOCUMENTS\UNIVERSITY_WORK\PROJECT\OPENPOSE\INCLUDE\OPENPOSE\CORE\ARRAY.HPP
C:\USERS\STUART\DOCUMENTS\UNIVERSITY_WORK\PROJECT\OPENPOSE\INCLUDE\OPENPOSE\CORE\MACROS.HPP
C:\USERS\STUART\DOCUMENTS\UNIVERSITY_WORK\PROJECT\OPENPOSE\INCLUDE\OPENPOSE\CORE\MATRIX.HPP
C:\USERS\STUART\DOCUMENTS\UNIVERSITY_WORK\PROJECT\OPENPOSE\INCLUDE\OPENPOSE\UTILITIES\ERRORANDLOG.HPP
C:\USERS\STUART\DOCUMENTS\UNIVERSITY_WORK\PROJECT\OPENPOSE\INCLUDE\OPENPOSE\UTILITIES\ENUMCLASSES.HPP
C:\USERS\STUART\DOCUMENTS\UNIVERSITY_WORK\PROJECT\OPENPOSE\INCLUDE\OPENPOSE\CORE\ARRAYCPUGPU.HPP
C:\USERS\STUART\DOCUMENTS\UNIVERSITY_WORK\PROJECT\OPENPOSE\INCLUDE\OPENPOSE\CORE\POINT.HPP
C:\USERS\STUART\DOCUMENTS\UNIVERSITY_WORK\PROJECT\OPENPOSE\INCLUDE\OPENPOSE\CORE\RECTANGLE.HPP
C:\USERS\STUART\DOCUMENTS\UNIVERSITY_WORK\PROJECT\OPENPOSE\INCLUDE\OPENPOSE\CORE\STRING.HPP
C:\USERS\STUART\DOCUMENTS\UNIVERSITY_WORK\PROJECT\OPENPOSE\INCLUDE\OPENPOSE\UTILITIES\PROFILER.HPP
C:\USERS\STUART\DOCUMENTS\UNIVERSITY_WORK\PROJECT\OPENPOSE\INCLUDE\OPENPOSE\CORE\DATUM.HPP
C:\USERS\STUART\DOCUMENTS\UNIVERSITY_WORK\PROJECT\OPENPOSE\INCLUDE\OPENPOSE\3D\JOINTANGLEESTIMATION.HPP
C:\USERS\STUART\DOCUMENTS\UNIVERSITY_WORK\PROJECT\OPENPOSE\INCLUDE\OPENPOSE\3D\POSETRIANGULATION.HPP
C:\USERS\STUART\DOCUMENTS\UNIVERSITY_WORK\PROJECT\OPENPOSE\INCLUDE\OPENPOSE\3D\WJOINTANGLEESTIMATION.HPP
C:\USERS\STUART\DOCUMENTS\UNIVERSITY_WORK\PROJECT\OPENPOSE\INCLUDE\OPENPOSE\3D\WPOSETRIANGULATION.HPP
C:\USERS\STUART\DOCUMENTS\UNIVERSITY_WORK\PROJECT\OPENPOSE\INCLUDE\OPENPOSE\THREAD\WORKER.HPP
C:\USERS\STUART\DOCUMENTS\UNIVERSITY_WORK\PROJECT\OPENPOSE\INCLUDE\OPENPOSE\UTILITIES\POINTERCONTAINER.HPP
C:\USERS\STUART\DOCUMENTS\UNIVERSITY_WORK\PROJECT\OPENPOSE\INCLUDE\OPENPOSE\CALIBRATION\HEADERS.HPP
C:\USERS\STUART\DOCUMENTS\UNIVERSITY_WORK\PROJECT\OPENPOSE\INCLUDE\OPENPOSE\CALIBRATION\CAMERAPARAMETERESTIMATION.HPP
C:\USERS\STUART\DOCUMENTS\UNIVERSITY_WORK\PROJECT\OPENPOSE\INCLUDE\OPENPOSE\CORE\HEADERS.HPP
C:\USERS\STUART\DOCUMENTS\UNIVERSITY_WORK\PROJECT\OPENPOSE\INCLUDE\OPENPOSE\CORE\CVMATTOOPINPUT.HPP
C:\USERS\STUART\DOCUMENTS\UNIVERSITY_WORK\PROJECT\OPENPOSE\INCLUDE\OPENPOSE\POSE\ENUMCLASSES.HPP
C:\USERS\STUART\DOCUMENTS\UNIVERSITY_WORK\PROJECT\OPENPOSE\INCLUDE\OPENPOSE\CORE\CVMATTOOPOUTPUT.HPP
C:\USERS\STUART\DOCUMENTS\UNIVERSITY_WORK\PROJECT\OPENPOSE\INCLUDE\OPENPOSE\CORE\ENUMCLASSES.HPP
C:\USERS\STUART\DOCUMENTS\UNIVERSITY_WORK\PROJECT\OPENPOSE\INCLUDE\OPENPOSE\CORE\GPURENDERER.HPP
E:\PROGRAM FILES (X86)\VISUAL STUDIO\VC\TOOLS\MSVC\14.16.27023\INCLUDE\ATOMIC
E:\PROGRAM FILES (X86)\VISUAL STUDIO\VC\TOOLS\MSVC\14.16.27023\INCLUDE\XATOMIC.H
E:\PROGRAM FILES (X86)\VISUAL STUDIO\VC\TOOLS\MSVC\14.16.27023\INCLUDE\XXATOMIC
C:\USERS\STUART\DOCUMENTS\UNIVERSITY_WORK\PROJECT\OPENPOSE\INCLUDE\OPENPOSE\CORE\RENDERER.HPP
C:\USERS\STUART\DOCUMENTS\UNIVERSITY_WORK\PROJECT\OPENPOSE\INCLUDE\OPENPOSE\CORE\KEEPTOPNPEOPLE.HPP
C:\USERS\STUART\DOCUMENTS\UNIVERSITY_WORK\PROJECT\OPENPOSE\INCLUDE\OPENPOSE\CORE\KEYPOINTSCALER.HPP
C:\USERS\STUART\DOCUMENTS\UNIVERSITY_WORK\PROJECT\OPENPOSE\INCLUDE\OPENPOSE\CORE\OPOUTPUTTOCVMAT.HPP
C:\USERS\STUART\DOCUMENTS\UNIVERSITY_WORK\PROJECT\OPENPOSE\INCLUDE\OPENPOSE\CORE\SCALEANDSIZEEXTRACTOR.HPP
C:\USERS\STUART\DOCUMENTS\UNIVERSITY_WORK\PROJECT\OPENPOSE\INCLUDE\OPENPOSE\CORE\VERBOSEPRINTER.HPP
C:\USERS\STUART\DOCUMENTS\UNIVERSITY_WORK\PROJECT\OPENPOSE\INCLUDE\OPENPOSE\CORE\WCVMATTOOPINPUT.HPP
C:\USERS\STUART\DOCUMENTS\UNIVERSITY_WORK\PROJECT\OPENPOSE\INCLUDE\OPENPOSE\CORE\WCVMATTOOPOUTPUT.HPP
C:\USERS\STUART\DOCUMENTS\UNIVERSITY_WORK\PROJECT\OPENPOSE\INCLUDE\OPENPOSE\UTILITIES\OPENCV.HPP
C:\USERS\STUART\DOCUMENTS\UNIVERSITY_WORK\PROJECT\OPENPOSE\INCLUDE\OPENPOSE\CORE\WKEEPTOPNPEOPLE.HPP
C:\USERS\STUART\DOCUMENTS\UNIVERSITY_WORK\PROJECT\OPENPOSE\INCLUDE\OPENPOSE\CORE\WKEYPOINTSCALER.HPP
C:\USERS\STUART\DOCUMENTS\UNIVERSITY_WORK\PROJECT\OPENPOSE\INCLUDE\OPENPOSE\CORE\WOPOUTPUTTOCVMAT.HPP
C:\USERS\STUART\DOCUMENTS\UNIVERSITY_WORK\PROJECT\OPENPOSE\INCLUDE\OPENPOSE\CORE\WSCALEANDSIZEEXTRACTOR.HPP
C:\USERS\STUART\DOCUMENTS\UNIVERSITY_WORK\PROJECT\OPENPOSE\INCLUDE\OPENPOSE\CORE\WVERBOSEPRINTER.HPP
C:\USERS\STUART\DOCUMENTS\UNIVERSITY_WORK\PROJECT\OPENPOSE\INCLUDE\OPENPOSE\FACE\HEADERS.HPP
C:\USERS\STUART\DOCUMENTS\UNIVERSITY_WORK\PROJECT\OPENPOSE\INCLUDE\OPENPOSE\FACE\FACEDETECTOR.HPP
C:\USERS\STUART\DOCUMENTS\UNIVERSITY_WORK\PROJECT\OPENPOSE\INCLUDE\OPENPOSE\FACE\FACEDETECTOROPENCV.HPP
C:\USERS\STUART\DOCUMENTS\UNIVERSITY_WORK\PROJECT\OPENPOSE\INCLUDE\OPENPOSE\FACE\FACEEXTRACTORCAFFE.HPP
C:\USERS\STUART\DOCUMENTS\UNIVERSITY_WORK\PROJECT\OPENPOSE\INCLUDE\OPENPOSE\FACE\FACEEXTRACTORNET.HPP
C:\USERS\STUART\DOCUMENTS\UNIVERSITY_WORK\PROJECT\OPENPOSE\INCLUDE\OPENPOSE\FACE\FACEPARAMETERS.HPP
C:\USERS\STUART\DOCUMENTS\UNIVERSITY_WORK\PROJECT\OPENPOSE\INCLUDE\OPENPOSE\POSE\POSEPARAMETERS.HPP
C:\USERS\STUART\DOCUMENTS\UNIVERSITY_WORK\PROJECT\OPENPOSE\INCLUDE\OPENPOSE\POSE\POSEPARAMETERSRENDER.HPP
C:\USERS\STUART\DOCUMENTS\UNIVERSITY_WORK\PROJECT\OPENPOSE\INCLUDE\OPENPOSE\FACE\FACECPURENDERER.HPP
C:\USERS\STUART\DOCUMENTS\UNIVERSITY_WORK\PROJECT\OPENPOSE\INCLUDE\OPENPOSE\FACE\FACERENDERER.HPP
C:\USERS\STUART\DOCUMENTS\UNIVERSITY_WORK\PROJECT\OPENPOSE\INCLUDE\OPENPOSE\FACE\FACEGPURENDERER.HPP
C:\USERS\STUART\DOCUMENTS\UNIVERSITY_WORK\PROJECT\OPENPOSE\INCLUDE\OPENPOSE\FACE\RENDERFACE.HPP
C:\USERS\STUART\DOCUMENTS\UNIVERSITY_WORK\PROJECT\OPENPOSE\INCLUDE\OPENPOSE\FACE\WFACEDETECTOR.HPP
C:\USERS\STUART\DOCUMENTS\UNIVERSITY_WORK\PROJECT\OPENPOSE\INCLUDE\OPENPOSE\FACE\WFACEDETECTOROPENCV.HPP
C:\USERS\STUART\DOCUMENTS\UNIVERSITY_WORK\PROJECT\OPENPOSE\INCLUDE\OPENPOSE\FACE\WFACEEXTRACTORNET.HPP
C:\USERS\STUART\DOCUMENTS\UNIVERSITY_WORK\PROJECT\OPENPOSE\INCLUDE\OPENPOSE\FACE\WFACERENDERER.HPP
C:\USERS\STUART\DOCUMENTS\UNIVERSITY_WORK\PROJECT\OPENPOSE\INCLUDE\OPENPOSE\FILESTREAM\HEADERS.HPP
C:\USERS\STUART\DOCUMENTS\UNIVERSITY_WORK\PROJECT\OPENPOSE\INCLUDE\OPENPOSE\FILESTREAM\BVHSAVER.HPP
C:\USERS\STUART\DOCUMENTS\UNIVERSITY_WORK\PROJECT\OPENPOSE\INCLUDE\OPENPOSE\FILESTREAM\COCOJSONSAVER.HPP
C:\USERS\STUART\DOCUMENTS\UNIVERSITY_WORK\PROJECT\OPENPOSE\INCLUDE\OPENPOSE\FILESTREAM\ENUMCLASSES.HPP
C:\USERS\STUART\DOCUMENTS\UNIVERSITY_WORK\PROJECT\OPENPOSE\INCLUDE\OPENPOSE\FILESTREAM\JSONOFSTREAM.HPP
E:\PROGRAM FILES (X86)\VISUAL STUDIO\VC\TOOLS\MSVC\14.16.27023\INCLUDE\FSTREAM
C:\USERS\STUART\DOCUMENTS\UNIVERSITY_WORK\PROJECT\OPENPOSE\INCLUDE\OPENPOSE\FILESTREAM\FILESAVER.HPP
C:\USERS\STUART\DOCUMENTS\UNIVERSITY_WORK\PROJECT\OPENPOSE\INCLUDE\OPENPOSE\UTILITIES\STRING.HPP
C:\USERS\STUART\DOCUMENTS\UNIVERSITY_WORK\PROJECT\OPENPOSE\INCLUDE\OPENPOSE\FILESTREAM\FILESTREAM.HPP
C:\USERS\STUART\DOCUMENTS\UNIVERSITY_WORK\PROJECT\OPENPOSE\INCLUDE\OPENPOSE\FILESTREAM\HEATMAPSAVER.HPP
C:\USERS\STUART\DOCUMENTS\UNIVERSITY_WORK\PROJECT\OPENPOSE\INCLUDE\OPENPOSE\FILESTREAM\IMAGESAVER.HPP
C:\USERS\STUART\DOCUMENTS\UNIVERSITY_WORK\PROJECT\OPENPOSE\INCLUDE\OPENPOSE\FILESTREAM\KEYPOINTSAVER.HPP
C:\USERS\STUART\DOCUMENTS\UNIVERSITY_WORK\PROJECT\OPENPOSE\INCLUDE\OPENPOSE\FILESTREAM\PEOPLEJSONSAVER.HPP
C:\USERS\STUART\DOCUMENTS\UNIVERSITY_WORK\PROJECT\OPENPOSE\INCLUDE\OPENPOSE\FILESTREAM\UDPSENDER.HPP
C:\USERS\STUART\DOCUMENTS\UNIVERSITY_WORK\PROJECT\OPENPOSE\INCLUDE\OPENPOSE\FILESTREAM\VIDEOSAVER.HPP
C:\USERS\STUART\DOCUMENTS\UNIVERSITY_WORK\PROJECT\OPENPOSE\INCLUDE\OPENPOSE\FILESTREAM\WBVHSAVER.HPP
C:\USERS\STUART\DOCUMENTS\UNIVERSITY_WORK\PROJECT\OPENPOSE\INCLUDE\OPENPOSE\FILESTREAM\WCOCOJSONSAVER.HPP
C:\USERS\STUART\DOCUMENTS\UNIVERSITY_WORK\PROJECT\OPENPOSE\INCLUDE\OPENPOSE\THREAD\WORKERCONSUMER.HPP
C:\USERS\STUART\DOCUMENTS\UNIVERSITY_WORK\PROJECT\OPENPOSE\INCLUDE\OPENPOSE\FILESTREAM\WFACESAVER.HPP
C:\USERS\STUART\DOCUMENTS\UNIVERSITY_WORK\PROJECT\OPENPOSE\INCLUDE\OPENPOSE\FILESTREAM\WHANDSAVER.HPP
C:\USERS\STUART\DOCUMENTS\UNIVERSITY_WORK\PROJECT\OPENPOSE\INCLUDE\OPENPOSE\FILESTREAM\WIMAGESAVER.HPP
C:\USERS\STUART\DOCUMENTS\UNIVERSITY_WORK\PROJECT\OPENPOSE\INCLUDE\OPENPOSE\FILESTREAM\WHEATMAPSAVER.HPP
C:\USERS\STUART\DOCUMENTS\UNIVERSITY_WORK\PROJECT\OPENPOSE\INCLUDE\OPENPOSE\FILESTREAM\WPEOPLEJSONSAVER.HPP
C:\USERS\STUART\DOCUMENTS\UNIVERSITY_WORK\PROJECT\OPENPOSE\INCLUDE\OPENPOSE\FILESTREAM\WPOSESAVER.HPP
C:\USERS\STUART\DOCUMENTS\UNIVERSITY_WORK\PROJECT\OPENPOSE\INCLUDE\OPENPOSE\FILESTREAM\WUDPSENDER.HPP
C:\USERS\STUART\DOCUMENTS\UNIVERSITY_WORK\PROJECT\OPENPOSE\INCLUDE\OPENPOSE\FILESTREAM\WVIDEOSAVER.HPP
C:\USERS\STUART\DOCUMENTS\UNIVERSITY_WORK\PROJECT\OPENPOSE\INCLUDE\OPENPOSE\FILESTREAM\WVIDEOSAVER3D.HPP
C:\USERS\STUART\DOCUMENTS\UNIVERSITY_WORK\PROJECT\OPENPOSE\INCLUDE\OPENPOSE\GUI\HEADERS.HPP
C:\USERS\STUART\DOCUMENTS\UNIVERSITY_WORK\PROJECT\OPENPOSE\INCLUDE\OPENPOSE\GUI\ENUMCLASSES.HPP
C:\USERS\STUART\DOCUMENTS\UNIVERSITY_WORK\PROJECT\OPENPOSE\INCLUDE\OPENPOSE\GUI\FRAMEDISPLAYER.HPP
C:\USERS\STUART\DOCUMENTS\UNIVERSITY_WORK\PROJECT\OPENPOSE\INCLUDE\OPENPOSE\GUI\GUI.HPP
C:\USERS\STUART\DOCUMENTS\UNIVERSITY_WORK\PROJECT\OPENPOSE\INCLUDE\OPENPOSE\POSE\POSEEXTRACTORNET.HPP
C:\USERS\STUART\DOCUMENTS\UNIVERSITY_WORK\PROJECT\OPENPOSE\INCLUDE\OPENPOSE\HAND\HANDEXTRACTORNET.HPP
C:\USERS\STUART\DOCUMENTS\UNIVERSITY_WORK\PROJECT\OPENPOSE\INCLUDE\OPENPOSE\GUI\GUIADAM.HPP
C:\USERS\STUART\DOCUMENTS\UNIVERSITY_WORK\PROJECT\OPENPOSE\INCLUDE\OPENPOSE\GUI\GUI3D.HPP
C:\USERS\STUART\DOCUMENTS\UNIVERSITY_WORK\PROJECT\OPENPOSE\INCLUDE\OPENPOSE\GUI\GUIINFOADDER.HPP
C:\USERS\STUART\DOCUMENTS\UNIVERSITY_WORK\PROJECT\OPENPOSE\INCLUDE\OPENPOSE\GUI\WGUI.HPP
C:\USERS\STUART\DOCUMENTS\UNIVERSITY_WORK\PROJECT\OPENPOSE\INCLUDE\OPENPOSE\GUI\WGUIADAM.HPP
C:\USERS\STUART\DOCUMENTS\UNIVERSITY_WORK\PROJECT\OPENPOSE\INCLUDE\OPENPOSE\GUI\WGUI3D.HPP
C:\USERS\STUART\DOCUMENTS\UNIVERSITY_WORK\PROJECT\OPENPOSE\INCLUDE\OPENPOSE\GUI\WGUIINFOADDER.HPP
C:\USERS\STUART\DOCUMENTS\UNIVERSITY_WORK\PROJECT\OPENPOSE\INCLUDE\OPENPOSE\HAND\HEADERS.HPP
C:\USERS\STUART\DOCUMENTS\UNIVERSITY_WORK\PROJECT\OPENPOSE\INCLUDE\OPENPOSE\HAND\HANDDETECTOR.HPP
C:\USERS\STUART\DOCUMENTS\UNIVERSITY_WORK\PROJECT\OPENPOSE\INCLUDE\OPENPOSE\HAND\HANDDETECTORFROMTXT.HPP
C:\USERS\STUART\DOCUMENTS\UNIVERSITY_WORK\PROJECT\OPENPOSE\INCLUDE\OPENPOSE\HAND\HANDEXTRACTORCAFFE.HPP
C:\USERS\STUART\DOCUMENTS\UNIVERSITY_WORK\PROJECT\OPENPOSE\INCLUDE\OPENPOSE\HAND\HANDPARAMETERS.HPP
C:\USERS\STUART\DOCUMENTS\UNIVERSITY_WORK\PROJECT\OPENPOSE\INCLUDE\OPENPOSE\HAND\HANDCPURENDERER.HPP
C:\USERS\STUART\DOCUMENTS\UNIVERSITY_WORK\PROJECT\OPENPOSE\INCLUDE\OPENPOSE\HAND\HANDRENDERER.HPP
C:\USERS\STUART\DOCUMENTS\UNIVERSITY_WORK\PROJECT\OPENPOSE\INCLUDE\OPENPOSE\HAND\HANDGPURENDERER.HPP
C:\USERS\STUART\DOCUMENTS\UNIVERSITY_WORK\PROJECT\OPENPOSE\INCLUDE\OPENPOSE\HAND\RENDERHAND.HPP
C:\USERS\STUART\DOCUMENTS\UNIVERSITY_WORK\PROJECT\OPENPOSE\INCLUDE\OPENPOSE\HAND\WHANDDETECTOR.HPP
C:\USERS\STUART\DOCUMENTS\UNIVERSITY_WORK\PROJECT\OPENPOSE\INCLUDE\OPENPOSE\HAND\WHANDDETECTORFROMTXT.HPP
C:\USERS\STUART\DOCUMENTS\UNIVERSITY_WORK\PROJECT\OPENPOSE\INCLUDE\OPENPOSE\HAND\WHANDDETECTORTRACKING.HPP
C:\USERS\STUART\DOCUMENTS\UNIVERSITY_WORK\PROJECT\OPENPOSE\INCLUDE\OPENPOSE\HAND\WHANDDETECTORUPDATE.HPP
C:\USERS\STUART\DOCUMENTS\UNIVERSITY_WORK\PROJECT\OPENPOSE\INCLUDE\OPENPOSE\HAND\WHANDEXTRACTORNET.HPP
C:\USERS\STUART\DOCUMENTS\UNIVERSITY_WORK\PROJECT\OPENPOSE\INCLUDE\OPENPOSE\HAND\WHANDRENDERER.HPP
C:\USERS\STUART\DOCUMENTS\UNIVERSITY_WORK\PROJECT\OPENPOSE\INCLUDE\OPENPOSE\NET\HEADERS.HPP
C:\USERS\STUART\DOCUMENTS\UNIVERSITY_WORK\PROJECT\OPENPOSE\INCLUDE\OPENPOSE\NET\BODYPARTCONNECTORBASE.HPP
C:\USERS\STUART\DOCUMENTS\UNIVERSITY_WORK\PROJECT\OPENPOSE\INCLUDE\OPENPOSE\NET\BODYPARTCONNECTORCAFFE.HPP
C:\USERS\STUART\DOCUMENTS\UNIVERSITY_WORK\PROJECT\OPENPOSE\INCLUDE\OPENPOSE\NET\MAXIMUMBASE.HPP
C:\USERS\STUART\DOCUMENTS\UNIVERSITY_WORK\PROJECT\OPENPOSE\INCLUDE\OPENPOSE\NET\MAXIMUMCAFFE.HPP
C:\USERS\STUART\DOCUMENTS\UNIVERSITY_WORK\PROJECT\OPENPOSE\INCLUDE\OPENPOSE\NET\NET.HPP
C:\USERS\STUART\DOCUMENTS\UNIVERSITY_WORK\PROJECT\OPENPOSE\INCLUDE\OPENPOSE\NET\NETCAFFE.HPP
C:\USERS\STUART\DOCUMENTS\UNIVERSITY_WORK\PROJECT\OPENPOSE\INCLUDE\OPENPOSE\NET\NETOPENCV.HPP
C:\USERS\STUART\DOCUMENTS\UNIVERSITY_WORK\PROJECT\OPENPOSE\INCLUDE\OPENPOSE\NET\NMSBASE.HPP
C:\USERS\STUART\DOCUMENTS\UNIVERSITY_WORK\PROJECT\OPENPOSE\INCLUDE\OPENPOSE\NET\NMSCAFFE.HPP
C:\USERS\STUART\DOCUMENTS\UNIVERSITY_WORK\PROJECT\OPENPOSE\INCLUDE\OPENPOSE\NET\RESIZEANDMERGEBASE.HPP
C:\USERS\STUART\DOCUMENTS\UNIVERSITY_WORK\PROJECT\OPENPOSE\INCLUDE\OPENPOSE\NET\RESIZEANDMERGECAFFE.HPP
C:\USERS\STUART\DOCUMENTS\UNIVERSITY_WORK\PROJECT\OPENPOSE\INCLUDE\OPENPOSE\POSE\HEADERS.HPP
C:\USERS\STUART\DOCUMENTS\UNIVERSITY_WORK\PROJECT\OPENPOSE\INCLUDE\OPENPOSE\POSE\POSECPURENDERER.HPP
C:\USERS\STUART\DOCUMENTS\UNIVERSITY_WORK\PROJECT\OPENPOSE\INCLUDE\OPENPOSE\POSE\POSERENDERER.HPP
C:\USERS\STUART\DOCUMENTS\UNIVERSITY_WORK\PROJECT\OPENPOSE\INCLUDE\OPENPOSE\POSE\POSEEXTRACTOR.HPP
C:\USERS\STUART\DOCUMENTS\UNIVERSITY_WORK\PROJECT\OPENPOSE\INCLUDE\OPENPOSE\TRACKING\PERSONIDEXTRACTOR.HPP
C:\USERS\STUART\DOCUMENTS\UNIVERSITY_WORK\PROJECT\OPENPOSE\INCLUDE\OPENPOSE\TRACKING\PERSONTRACKER.HPP
C:\USERS\STUART\DOCUMENTS\UNIVERSITY_WORK\PROJECT\OPENPOSE\INCLUDE\OPENPOSE\POSE\POSEEXTRACTORCAFFE.HPP
C:\USERS\STUART\DOCUMENTS\UNIVERSITY_WORK\PROJECT\OPENPOSE\INCLUDE\OPENPOSE\POSE\POSEGPURENDERER.HPP
C:\USERS\STUART\DOCUMENTS\UNIVERSITY_WORK\PROJECT\OPENPOSE\INCLUDE\OPENPOSE\POSE\RENDERPOSE.HPP
C:\USERS\STUART\DOCUMENTS\UNIVERSITY_WORK\PROJECT\OPENPOSE\INCLUDE\OPENPOSE\POSE\WPOSEEXTRACTOR.HPP
C:\USERS\STUART\DOCUMENTS\UNIVERSITY_WORK\PROJECT\OPENPOSE\INCLUDE\OPENPOSE\POSE\WPOSEEXTRACTORNET.HPP
C:\USERS\STUART\DOCUMENTS\UNIVERSITY_WORK\PROJECT\OPENPOSE\INCLUDE\OPENPOSE\POSE\WPOSERENDERER.HPP
C:\USERS\STUART\DOCUMENTS\UNIVERSITY_WORK\PROJECT\OPENPOSE\INCLUDE\OPENPOSE\PRODUCER\HEADERS.HPP
C:\USERS\STUART\DOCUMENTS\UNIVERSITY_WORK\PROJECT\OPENPOSE\INCLUDE\OPENPOSE\PRODUCER\DATUMPRODUCER.HPP
C:\USERS\STUART\DOCUMENTS\UNIVERSITY_WORK\PROJECT\OPENPOSE\INCLUDE\OPENPOSE\UTILITIES\FASTMATH.HPP
C:\USERS\STUART\DOCUMENTS\UNIVERSITY_WORK\PROJECT\OPENPOSE\INCLUDE\OPENPOSE\PRODUCER\PRODUCER.HPP
C:\USERS\STUART\DOCUMENTS\UNIVERSITY_WORK\PROJECT\OPENPOSE\INCLUDE\OPENPOSE\PRODUCER\ENUMCLASSES.HPP
C:\USERS\STUART\DOCUMENTS\UNIVERSITY_WORK\PROJECT\OPENPOSE\INCLUDE\OPENPOSE\PRODUCER\FLIRREADER.HPP
C:\USERS\STUART\DOCUMENTS\UNIVERSITY_WORK\PROJECT\OPENPOSE\INCLUDE\OPENPOSE\PRODUCER\SPINNAKERWRAPPER.HPP
C:\USERS\STUART\DOCUMENTS\UNIVERSITY_WORK\PROJECT\OPENPOSE\INCLUDE\OPENPOSE\PRODUCER\IMAGEDIRECTORYREADER.HPP
C:\USERS\STUART\DOCUMENTS\UNIVERSITY_WORK\PROJECT\OPENPOSE\INCLUDE\OPENPOSE\PRODUCER\IPCAMERAREADER.HPP
C:\USERS\STUART\DOCUMENTS\UNIVERSITY_WORK\PROJECT\OPENPOSE\INCLUDE\OPENPOSE\PRODUCER\VIDEOCAPTUREREADER.HPP
C:\USERS\STUART\DOCUMENTS\UNIVERSITY_WORK\PROJECT\OPENPOSE\INCLUDE\OPENPOSE\PRODUCER\VIDEOREADER.HPP
C:\USERS\STUART\DOCUMENTS\UNIVERSITY_WORK\PROJECT\OPENPOSE\INCLUDE\OPENPOSE\PRODUCER\WEBCAMREADER.HPP
C:\USERS\STUART\DOCUMENTS\UNIVERSITY_WORK\PROJECT\OPENPOSE\INCLUDE\OPENPOSE\PRODUCER\WDATUMPRODUCER.HPP
C:\USERS\STUART\DOCUMENTS\UNIVERSITY_WORK\PROJECT\OPENPOSE\INCLUDE\OPENPOSE\THREAD\WORKERPRODUCER.HPP
C:\USERS\STUART\DOCUMENTS\UNIVERSITY_WORK\PROJECT\OPENPOSE\INCLUDE\OPENPOSE\THREAD\HEADERS.HPP
C:\USERS\STUART\DOCUMENTS\UNIVERSITY_WORK\PROJECT\OPENPOSE\INCLUDE\OPENPOSE\THREAD\ENUMCLASSES.HPP
C:\USERS\STUART\DOCUMENTS\UNIVERSITY_WORK\PROJECT\OPENPOSE\INCLUDE\OPENPOSE\THREAD\PRIORITYQUEUE.HPP
C:\USERS\STUART\DOCUMENTS\UNIVERSITY_WORK\PROJECT\OPENPOSE\INCLUDE\OPENPOSE\THREAD\QUEUEBASE.HPP
E:\PROGRAM FILES (X86)\VISUAL STUDIO\VC\TOOLS\MSVC\14.16.27023\INCLUDE\CONDITION_VARIABLE
C:\USERS\STUART\DOCUMENTS\UNIVERSITY_WORK\PROJECT\OPENPOSE\INCLUDE\OPENPOSE\THREAD\QUEUE.HPP
C:\USERS\STUART\DOCUMENTS\UNIVERSITY_WORK\PROJECT\OPENPOSE\INCLUDE\OPENPOSE\THREAD\SUBTHREAD.HPP
C:\USERS\STUART\DOCUMENTS\UNIVERSITY_WORK\PROJECT\OPENPOSE\INCLUDE\OPENPOSE\THREAD\SUBTHREADNOQUEUE.HPP
C:\USERS\STUART\DOCUMENTS\UNIVERSITY_WORK\PROJECT\OPENPOSE\INCLUDE\OPENPOSE\THREAD\THREAD.HPP
C:\USERS\STUART\DOCUMENTS\UNIVERSITY_WORK\PROJECT\OPENPOSE\INCLUDE\OPENPOSE\THREAD\SUBTHREADQUEUEIN.HPP
C:\USERS\STUART\DOCUMENTS\UNIVERSITY_WORK\PROJECT\OPENPOSE\INCLUDE\OPENPOSE\THREAD\SUBTHREADQUEUEINOUT.HPP
C:\USERS\STUART\DOCUMENTS\UNIVERSITY_WORK\PROJECT\OPENPOSE\INCLUDE\OPENPOSE\THREAD\SUBTHREADQUEUEOUT.HPP
C:\USERS\STUART\DOCUMENTS\UNIVERSITY_WORK\PROJECT\OPENPOSE\INCLUDE\OPENPOSE\THREAD\THREADMANAGER.HPP
C:\USERS\STUART\DOCUMENTS\UNIVERSITY_WORK\PROJECT\OPENPOSE\INCLUDE\OPENPOSE\THREAD\WFPSMAX.HPP
C:\USERS\STUART\DOCUMENTS\UNIVERSITY_WORK\PROJECT\OPENPOSE\INCLUDE\OPENPOSE\THREAD\WIDGENERATOR.HPP
C:\USERS\STUART\DOCUMENTS\UNIVERSITY_WORK\PROJECT\OPENPOSE\INCLUDE\OPENPOSE\THREAD\WQUEUEASSEMBLER.HPP
C:\USERS\STUART\DOCUMENTS\UNIVERSITY_WORK\PROJECT\OPENPOSE\INCLUDE\OPENPOSE\THREAD\WQUEUEORDERER.HPP
C:\USERS\STUART\DOCUMENTS\UNIVERSITY_WORK\PROJECT\OPENPOSE\INCLUDE\OPENPOSE\TRACKING\HEADERS.HPP
C:\USERS\STUART\DOCUMENTS\UNIVERSITY_WORK\PROJECT\OPENPOSE\INCLUDE\OPENPOSE\TRACKING\WPERSONIDEXTRACTOR.HPP
C:\USERS\STUART\DOCUMENTS\UNIVERSITY_WORK\PROJECT\OPENPOSE\INCLUDE\OPENPOSE\UNITY\HEADERS.HPP
C:\USERS\STUART\DOCUMENTS\UNIVERSITY_WORK\PROJECT\OPENPOSE\INCLUDE\OPENPOSE\UNITY\UNITYBINDING.HPP
C:\USERS\STUART\DOCUMENTS\UNIVERSITY_WORK\PROJECT\OPENPOSE\INCLUDE\OPENPOSE\UTILITIES\HEADERS.HPP
C:\USERS\STUART\DOCUMENTS\UNIVERSITY_WORK\PROJECT\OPENPOSE\INCLUDE\OPENPOSE\UTILITIES\CHECK.HPP
C:\USERS\STUART\DOCUMENTS\UNIVERSITY_WORK\PROJECT\OPENPOSE\INCLUDE\OPENPOSE\UTILITIES\FILESYSTEM.HPP
C:\USERS\STUART\DOCUMENTS\UNIVERSITY_WORK\PROJECT\OPENPOSE\INCLUDE\OPENPOSE\UTILITIES\FLAGSTOOPENPOSE.HPP
C:\USERS\STUART\DOCUMENTS\UNIVERSITY_WORK\PROJECT\OPENPOSE\INCLUDE\OPENPOSE\WRAPPER\ENUMCLASSES.HPP
C:\USERS\STUART\DOCUMENTS\UNIVERSITY_WORK\PROJECT\OPENPOSE\INCLUDE\OPENPOSE\UTILITIES\KEYPOINT.HPP
C:\USERS\STUART\DOCUMENTS\UNIVERSITY_WORK\PROJECT\OPENPOSE\INCLUDE\OPENPOSE\UTILITIES\STANDARD.HPP
C:\USERS\STUART\DOCUMENTS\UNIVERSITY_WORK\PROJECT\OPENPOSE\INCLUDE\OPENPOSE\WRAPPER\HEADERS.HPP
C:\USERS\STUART\DOCUMENTS\UNIVERSITY_WORK\PROJECT\OPENPOSE\INCLUDE\OPENPOSE\WRAPPER\WRAPPER.HPP
C:\USERS\STUART\DOCUMENTS\UNIVERSITY_WORK\PROJECT\OPENPOSE\INCLUDE\OPENPOSE\WRAPPER\WRAPPERSTRUCTEXTRA.HPP
C:\USERS\STUART\DOCUMENTS\UNIVERSITY_WORK\PROJECT\OPENPOSE\INCLUDE\OPENPOSE\WRAPPER\WRAPPERSTRUCTFACE.HPP
C:\USERS\STUART\DOCUMENTS\UNIVERSITY_WORK\PROJECT\OPENPOSE\INCLUDE\OPENPOSE\WRAPPER\WRAPPERSTRUCTGUI.HPP
C:\USERS\STUART\DOCUMENTS\UNIVERSITY_WORK\PROJECT\OPENPOSE\INCLUDE\OPENPOSE\WRAPPER\WRAPPERSTRUCTHAND.HPP
C:\USERS\STUART\DOCUMENTS\UNIVERSITY_WORK\PROJECT\OPENPOSE\INCLUDE\OPENPOSE\WRAPPER\WRAPPERSTRUCTINPUT.HPP
C:\USERS\STUART\DOCUMENTS\UNIVERSITY_WORK\PROJECT\OPENPOSE\INCLUDE\OPENPOSE\WRAPPER\WRAPPERSTRUCTOUTPUT.HPP
C:\USERS\STUART\DOCUMENTS\UNIVERSITY_WORK\PROJECT\OPENPOSE\INCLUDE\OPENPOSE\WRAPPER\WRAPPERSTRUCTPOSE.HPP
C:\USERS\STUART\DOCUMENTS\UNIVERSITY_WORK\PROJECT\OPENPOSE\INCLUDE\OPENPOSE\WRAPPER\WRAPPERAUXILIARY.HPP
C:\USERS\STUART\DOCUMENTS\UNIVERSITY_WORK\PROJECT\OPENPOSE\INCLUDE\OPENPOSE\GPU\GPU.HPP
C:\USERS\STUART\DOCUMENTS\UNIVERSITY_WORK\PROJECT\OPENPOSE\INCLUDE\OPENPOSE\GPU\ENUMCLASSES.HPP
