^C:\Users\Stuart\Documents\University_Work\Project\openpose\build\src\openpose\openpose.vcxproj
C:\Users\Stuart\Documents\University_Work\Project\openpose\build\src\openpose\Release\openpose.lib
C:\Users\Stuart\Documents\University_Work\Project\openpose\build\src\openpose\Release\openpose.exp
