^C:\Users\Stuart\Documents\University_Work\Project\openpose\build\examples\tutorial_api_cpp\04_keypoints_from_images.vcxproj
C:\Users\Stuart\Documents\University_Work\Project\openpose\build\examples\tutorial_api_cpp\Release\04_keypoints_from_images.lib
C:\Users\Stuart\Documents\University_Work\Project\openpose\build\examples\tutorial_api_cpp\Release\04_keypoints_from_images.exp
